<?xml version="1.0" encoding="UTF-8" standalone="no"?>
<!-- Created with Inkscape (http://www.inkscape.org/) -->

<svg
   xmlns:osb="http://www.openswatchbook.org/uri/2009/osb"
   xmlns:dc="http://purl.org/dc/elements/1.1/"
   xmlns:cc="http://creativecommons.org/ns#"
   xmlns:rdf="http://www.w3.org/1999/02/22-rdf-syntax-ns#"
   xmlns:svg="http://www.w3.org/2000/svg"
   xmlns="http://www.w3.org/2000/svg"
   xmlns:xlink="http://www.w3.org/1999/xlink"
   xmlns:sodipodi="http://sodipodi.sourceforge.net/DTD/sodipodi-0.dtd"
   xmlns:inkscape="http://www.inkscape.org/namespaces/inkscape"
   width="189.84547mm"
   height="304.4877mm"
   viewBox="0 0 672.68081 1078.8934"
   id="svg2"
   version="1.1"
   inkscape:version="0.91 r13725"
   sodipodi:docname="Logo_periodic.svg"
   inkscape:export-filename="/home/moe/Dokumente/Hal/Logo_periodic.png"
   inkscape:export-xdpi="71.949997"
   inkscape:export-ydpi="71.949997">
  <defs
     id="defs4">
    <linearGradient
       id="linearGradient4140"
       osb:paint="solid">
      <stop
         style="stop-color:#000000;stop-opacity:1;"
         offset="0"
         id="stop4142" />
    </linearGradient>
  </defs>
  <sodipodi:namedview
     id="base"
     pagecolor="#ffffff"
     bordercolor="#666666"
     borderopacity="1.0"
     inkscape:pageopacity="0.0"
     inkscape:pageshadow="2"
     inkscape:zoom="0.78135612"
     inkscape:cx="336.34051"
     inkscape:cy="539.44671"
     inkscape:document-units="px"
     inkscape:current-layer="g4613"
     showgrid="false"
     showguides="false"
     inkscape:guide-bbox="true"
     inkscape:window-width="1680"
     inkscape:window-height="1022"
     inkscape:window-x="1600"
     inkscape:window-y="0"
     inkscape:window-maximized="1"
     inkscape:snap-grids="true"
     inkscape:snap-text-baseline="true"
     showborder="false"
     fit-margin-top="0"
     fit-margin-left="0"
     fit-margin-right="0"
     fit-margin-bottom="0">
    <sodipodi:guide
       position="128.42489,492.59835"
       orientation="0,1"
       id="guide4404" />
    <sodipodi:guide
       position="161.11386,446.76015"
       orientation="0,1"
       id="guide4406" />
    <sodipodi:guide
       position="630.80498,1009.279"
       orientation="1,0"
       id="guide4408" />
    <sodipodi:guide
       position="37.71581,982.32609"
       orientation="1,0"
       id="guide4410" />
    <sodipodi:guide
       position="377.97732,1002.068"
       orientation="0,1"
       id="guide4414" />
    <sodipodi:guide
       position="379.5719,1048.3109"
       orientation="0,1"
       id="guide4416" />
    <sodipodi:guide
       position="80.587359,900.01459"
       orientation="1,0"
       id="guide4444" />
    <sodipodi:guide
       position="605.20556,876.89312"
       orientation="1,0"
       id="guide4446" />
  </sodipodi:namedview>
  <metadata
     id="metadata7">
    <rdf:RDF>
      <cc:Work
         rdf:about="">
        <dc:format>image/svg+xml</dc:format>
        <dc:type
           rdf:resource="http://purl.org/dc/dcmitype/StillImage" />
        <dc:title />
      </cc:Work>
    </rdf:RDF>
  </metadata>
  <g
     inkscape:label="PNG vorlage"
     inkscape:groupmode="layer"
     id="layer1"
     style="display:none"
     sodipodi:insensitive="true"
     transform="translate(-42.992913,-49.880665)">
    <image
       y="5.4570827"
       x="2.5584931"
       id="image4158"
       xlink:href="data:image/png;base64,iVBORw0KGgoAAAANSUhEUgAAAlgAAAPoCAIAAACNuRdKAAAKQWlDQ1BJQ0MgUHJvZmlsZQAASA2d lndUU9kWh8+9N73QEiIgJfQaegkg0jtIFQRRiUmAUAKGhCZ2RAVGFBEpVmRUwAFHhyJjRRQLg4Ji 1wnyEFDGwVFEReXdjGsJ7601896a/cdZ39nnt9fZZ+9917oAUPyCBMJ0WAGANKFYFO7rwVwSE8vE 9wIYEAEOWAHA4WZmBEf4RALU/L09mZmoSMaz9u4ugGS72yy/UCZz1v9/kSI3QyQGAApF1TY8fiYX 5QKUU7PFGTL/BMr0lSkyhjEyFqEJoqwi48SvbPan5iu7yZiXJuShGlnOGbw0noy7UN6aJeGjjASh XJgl4GejfAdlvVRJmgDl9yjT0/icTAAwFJlfzOcmoWyJMkUUGe6J8gIACJTEObxyDov5OWieAHim Z+SKBIlJYqYR15hp5ejIZvrxs1P5YjErlMNN4Yh4TM/0tAyOMBeAr2+WRQElWW2ZaJHtrRzt7VnW 5mj5v9nfHn5T/T3IevtV8Sbsz55BjJ5Z32zsrC+9FgD2JFqbHbO+lVUAtG0GQOXhrE/vIADyBQC0 3pzzHoZsXpLE4gwnC4vs7GxzAZ9rLivoN/ufgm/Kv4Y595nL7vtWO6YXP4EjSRUzZUXlpqemS0TM zAwOl89k/fcQ/+PAOWnNycMsnJ/AF/GF6FVR6JQJhIlou4U8gViQLmQKhH/V4X8YNicHGX6daxRo dV8AfYU5ULhJB8hvPQBDIwMkbj96An3rWxAxCsi+vGitka9zjzJ6/uf6Hwtcim7hTEEiU+b2DI9k ciWiLBmj34RswQISkAd0oAo0gS4wAixgDRyAM3AD3iAAhIBIEAOWAy5IAmlABLJBPtgACkEx2AF2 g2pwANSBetAEToI2cAZcBFfADXALDIBHQAqGwUswAd6BaQiC8BAVokGqkBakD5lC1hAbWgh5Q0FQ OBQDxUOJkBCSQPnQJqgYKoOqoUNQPfQjdBq6CF2D+qAH0CA0Bv0BfYQRmALTYQ3YALaA2bA7HAhH wsvgRHgVnAcXwNvhSrgWPg63whfhG/AALIVfwpMIQMgIA9FGWAgb8URCkFgkAREha5EipAKpRZqQ DqQbuY1IkXHkAwaHoWGYGBbGGeOHWYzhYlZh1mJKMNWYY5hWTBfmNmYQM4H5gqVi1bGmWCesP3YJ NhGbjS3EVmCPYFuwl7ED2GHsOxwOx8AZ4hxwfrgYXDJuNa4Etw/XjLuA68MN4SbxeLwq3hTvgg/B c/BifCG+Cn8cfx7fjx/GvyeQCVoEa4IPIZYgJGwkVBAaCOcI/YQRwjRRgahPdCKGEHnEXGIpsY7Y QbxJHCZOkxRJhiQXUiQpmbSBVElqIl0mPSa9IZPJOmRHchhZQF5PriSfIF8lD5I/UJQoJhRPShxF QtlOOUq5QHlAeUOlUg2obtRYqpi6nVpPvUR9Sn0vR5Mzl/OX48mtk6uRa5Xrl3slT5TXl3eXXy6f J18hf0r+pvy4AlHBQMFTgaOwVqFG4bTCPYVJRZqilWKIYppiiWKD4jXFUSW8koGStxJPqUDpsNIl pSEaQtOledK4tE20Otpl2jAdRzek+9OT6cX0H+i99AllJWVb5SjlHOUa5bPKUgbCMGD4M1IZpYyT jLuMj/M05rnP48/bNq9pXv+8KZX5Km4qfJUilWaVAZWPqkxVb9UU1Z2qbapP1DBqJmphatlq+9Uu q43Pp893ns+dXzT/5PyH6rC6iXq4+mr1w+o96pMamhq+GhkaVRqXNMY1GZpumsma5ZrnNMe0aFoL tQRa5VrntV4wlZnuzFRmJbOLOaGtru2nLdE+pN2rPa1jqLNYZ6NOs84TXZIuWzdBt1y3U3dCT0sv WC9fr1HvoT5Rn62fpL9Hv1t/ysDQINpgi0GbwaihiqG/YZ5ho+FjI6qRq9Eqo1qjO8Y4Y7ZxivE+ 41smsImdSZJJjclNU9jU3lRgus+0zwxr5mgmNKs1u8eisNxZWaxG1qA5wzzIfKN5m/krCz2LWIud Ft0WXyztLFMt6ywfWSlZBVhttOqw+sPaxJprXWN9x4Zq42Ozzqbd5rWtqS3fdr/tfTuaXbDdFrtO u8/2DvYi+yb7MQc9h3iHvQ732HR2KLuEfdUR6+jhuM7xjOMHJ3snsdNJp9+dWc4pzg3OowsMF/AX 1C0YctFx4bgccpEuZC6MX3hwodRV25XjWuv6zE3Xjed2xG3E3dg92f24+ysPSw+RR4vHlKeT5xrP C16Il69XkVevt5L3Yu9q76c+Oj6JPo0+E752vqt9L/hh/QL9dvrd89fw5/rX+08EOASsCegKpARG BFYHPgsyCRIFdQTDwQHBu4IfL9JfJFzUFgJC/EN2hTwJNQxdFfpzGC4sNKwm7Hm4VXh+eHcELWJF REPEu0iPyNLIR4uNFksWd0bJR8VF1UdNRXtFl0VLl1gsWbPkRoxajCCmPRYfGxV7JHZyqffS3UuH 4+ziCuPuLjNclrPs2nK15anLz66QX8FZcSoeGx8d3xD/iRPCqeVMrvRfuXflBNeTu4f7kufGK+eN 8V34ZfyRBJeEsoTRRJfEXYljSa5JFUnjAk9BteB1sl/ygeSplJCUoykzqdGpzWmEtPi000IlYYqw K10zPSe9L8M0ozBDuspp1e5VE6JA0ZFMKHNZZruYjv5M9UiMJJslg1kLs2qy3mdHZZ/KUcwR5vTk muRuyx3J88n7fjVmNXd1Z752/ob8wTXuaw6thdauXNu5Tnddwbrh9b7rj20gbUjZ8MtGy41lG99u it7UUaBRsL5gaLPv5sZCuUJR4b0tzlsObMVsFWzt3WazrWrblyJe0fViy+KK4k8l3JLr31l9V/nd zPaE7b2l9qX7d+B2CHfc3em681iZYlle2dCu4F2t5czyovK3u1fsvlZhW3FgD2mPZI+0MqiyvUqv akfVp+qk6oEaj5rmvep7t+2d2sfb17/fbX/TAY0DxQc+HhQcvH/I91BrrUFtxWHc4azDz+ui6rq/ Z39ff0TtSPGRz0eFR6XHwo911TvU1zeoN5Q2wo2SxrHjccdv/eD1Q3sTq+lQM6O5+AQ4ITnx4sf4 H++eDDzZeYp9qukn/Z/2ttBailqh1tzWibakNml7THvf6YDTnR3OHS0/m/989Iz2mZqzymdLz5HO FZybOZ93fvJCxoXxi4kXhzpXdD66tOTSna6wrt7LgZevXvG5cqnbvfv8VZerZ645XTt9nX297Yb9 jdYeu56WX+x+aem172296XCz/ZbjrY6+BX3n+l37L972un3ljv+dGwOLBvruLr57/17cPel93v3R B6kPXj/Mejj9aP1j7OOiJwpPKp6qP6391fjXZqm99Oyg12DPs4hnj4a4Qy//lfmvT8MFz6nPK0a0 RupHrUfPjPmM3Xqx9MXwy4yX0+OFvyn+tveV0auffnf7vWdiycTwa9HrmT9K3qi+OfrW9m3nZOjk 03dp76anit6rvj/2gf2h+2P0x5Hp7E/4T5WfjT93fAn88ngmbWbm3/eE8/syOll+AAAACXBIWXMA AAsTAAALEwEAmpwYAABAAElEQVR4Aeydd8AUxfnHg3RBkKIIqKgBRUHAXgmgYo2oiGLvPfZo7NiN ir33Fgv23ltEo6IiNrBgFxCwoEgH4fcN93OzzOzt7d27fT/3B8zOzjzzzGfu3e/N7JQ//YkPBCAA AQhAAAIQgAAEIAABCEAAAhCAAAQgAAEIQAACEIAABCAAAQhAAAIQgAAEIAABCEAAAhCAAAQgAAEI QAACEIAABCAAAQhAAAIQgAAEIAABCEAAAhCAAAQgAAEIQAACEIAABCAAAQhAAAIQgAAEIAABCEAA AhCAAAQgAAEIQAACEIAABCAAAQhAAAIQgAAEIAABCEAAAhCAAAQgAAEIQAACEIAABCAAAQhAAAIQ gAAEIAABCEAAAhCAAAQgAAEIQAACEIAABCAAAQhAAAIQgAAEIAABCEAAAhCAAAQgAAEIQAACEIAA BCAAAQhAAAIQgAAEIAABCEAAAhCAAAQgAAEIQAACEIAABCAAAQhAAAIQgAAEIAABCEAAAhCAAAQg AAEIQAACEIAABCAAAQhAAAIQgAAEIAABCEAAAhCAAAQgAAEIQAACEIAABCAAgdAJ1Avdor/BBQsW +CfgLgQgAAEIQMAmUK9eVIK1mF0YMRCAAAQgAIHiEEAIi9PW1BQCEIAABDwIIIQeUIiCAAQgAIHi EEAIi9PW1BQCEIAABDwIIIQeUIiCAAQgAIHiEEAIi9PW1BQCEIAABDwIIIQeUIiCAAQgAIHiEEAI i9PW1BQCEIAABDwIIIQeUIiCAAQgAIHiEGiQqqpGt3FAqqqJMxCAAAQgYBNIausxeoR2WxADAQhA AAIFIoAQFqixqSoEIAABCNgEEEKbCTEQgAAEIFAgAghhgRqbqkIAAhCAgE0AIbSZEAMBCEAAAgUi gBAWqLGpKgQgAAEI2AQQQpsJMRCAAAQgUCACCGGBGpuqQgACEICATQAhtJkQAwEIQAACBSKAEBao sakqBCAAAQjYBBBCmwkxEIAABCBQIAIIYYEam6pCAAIQgIBNACG0mRADAQhAAAIFIoAQFqixqSoE IAABCNgE0nUMk+1fsjGLLbbYqquu2rVr1y5durRt27Z58+azZs36yvWZNm1ash5SOgQgUHACLVu2 1AOq9Fl22WVnzJjx66+/fvPNN6NHj/7www91WXA+aay+jpvy+UTh8bBhw+Zbn3HjxvmU1b59+8MO O+zJJ5/85ZdffLyV1XvvvXe11VbzMcUtCEAAAhER2Hzzzd9//32fZ9Ts2bOff/75o446aqmllvL0 YZ111rGejv+NOOSQQzzTK7Jx48Z2FolxufRVxfvURbeqMpXqxDHXc9ttt/UsccKECeUwnXDCCWpm z1yekb///vs999yjXmM5g8RDAAIQCJeARqqeeuopzyeSZ6QUUb/aGzZsaLghIfRM/9ZbbxkpnUsJ oZ0FIXT4BArYBN0xgUwETrTEEkt89913bvtO2EcIL774YidZ8IDGSLt37x7YNRJCAAIQqJHARhtt NHfu3OBPJyelXu4YRZYTQmUp90DLpRDmebLMP//5T42YGw0f0WWzZs0eeuihsH4WReQkZiEAgawT aNGixZ133tmgQeTTO/bbb7+sswruf26FcMMNNzz00EODg6iYcubMmZ999tn06dPLpdTL6jvuuKNe vXrlEhAPAQhAoI4Err766hVWWKGORoJk32OPPeyh1CAZSVOZgNNJ9wxUzh8sRaNGjTRjyrOIUmTA odEvv/zyrLPOGjhw4Morr6wZpKXC1cu85JJLNObuaX/99dcP5iOpIAABCFRHYIMNNvB87OiBduKJ J26yySb6Od65c2eNne6zzz7/+te/Jk2a5E5f1dCoMu644462f7kcGrWrGW2Mu1XscFhln3766bZx d0xFIXz99dcHDRpUv379ci7179/fc07NhRdeWC4L8RCAAATqQuCII45wP8dK4TfeeKNp06aeZtUl OPLIIx05rFYINXPeNosQ2kyqjrFb0R1TtTmvDJpPZXTXtPjPXYrCPkK4ww476GeXl2Ez7uabbzbM 6vLpp58203ENAQhAIAwCN954o/3MWXHFFf1tS/9OPfVULQarVgjnzZvXoUMHwzhCaACp5dJuRXdM LRYXzaNXdK+99prb5ssvv/zCCy+4YxQeP378ovlqudp5550Ns7ocNWpULbbIAwEIQKASgREjRhjP HP8l0W57rVu3toe4fGaNlgo66aST3EYUzqUQ5m2yjCbIaHzcaTn1BQ866CC1qBMTYmDs2LG2NY1F 2JHEQAACEKg7AU1WMIwEn533888/a9Gzkd2+1DPTHbnvvvu6L/MazpUQahqLlky4m0pTXTzlyp2m 5rDnIvrJkyfXbJCMEIAABHwI6G2fcVdDl2uttZYRWZdLPcGGDx/uWNDsm969ezuXeQ3kSgg1sViL bJym0uZDQ4cOdS5DD/Tp08e2qc397EhiIAABCNSdwBdffGEb0c5Wmhhhx9ccc8stt7jz7r///u5L wiEQMAa4jcu6FLDTTju5rek1r4a/Swa12577lsKhvCP85JNPDLO63GKLLepSC/JCAAIQKEfg8ssv t585itEq57PPPrvchqLlrCnefkeo3boXX3xxbdvtFKRts7RLl2Mkl+8IndrFFHDgegZqdqJVq1bf f/+926aW+jnWohBCz5kyWnFvv4523CAAAQhAoC4E1lxzTc9VW6VHn17v3X333Ztuuqmz6LliWZ5C qFzXX3+9+3F6wAEHOKYQQgdF7QE3XDtcs92bbrrJbU0HJWnPM8da6ELYpk0bTdZyl1gK77nnnk6h BCAAAQiETkD7q9lPHiNGvbozzzyzXbt2FUsvJ4Trrbee26bWVTumEEIHRe0BN1w7XJvdfv36GaaM 8clwhVC7/L344otGibr897//HXwGV201JRcEIFBwAssvv7wx+mU/i0ox2g9SA2PLLLOMD7FyQqgs H330kduyMzcQIfThGfSWm6wdDmrFla5JkyaaF+o2pY2FXPf/GwxXCK+55hp3caXw1KlT49kA0Kga lxCAQNEIaCbnmDFj7KeQZ0zp9WG5wVIfITz22GPdBp09sxDCEL5vbrJ2uIYCtF7CbeeHH37QUfKG nRCFUMtL3cWVwpqY89e//tUolEsIQAACERFQB0DKZO+ZZT+dSjE6jFACZjvjI4SaejNnzhzHoLqh pSMvEEIbY9UxDlbPQLXmevXqZZzLpR3TbSNhCaGmEXu6rTX7dqHEQAACEIiUgIZJb7jhhhkzZng+ l4xIvbuRfBr++AihUj744INuIwMGDFAkQmgwrOXSjdUOV2VR8zPffvttt5FnnnnG00IoQqg9SNXz cxdXCv/jH//wLJRICEAAAjEQ0N5pxx9/vKas208nI+boo482/PEXwq233tpt4dFHH1V2hNBgWMul G6sdrsqisRG7FruUe0tXdyHcbLPNPEchzjjjjKp8JjEEIACBiAhsvPHGOgngt99+sx+tpZiJEydq jaC7dH8hVGfDPT1ew2+aiZpLIYz8mGM39HDDPXr0cBvUAYS77rqrO8YJ27uza32os5msphpr8Y2T 2A7oiMFHHnlEzW/cOv/88xFCgwmXEIBAUgR03oA+6h3qc9xxx9mn2EvGtCLwiiuuCOih9ia9/fbb Tz755FJ6Gdxrr72CZw9YShGTlfupUoqviojniST+9j3vai2ET7mrr766Nqu1MzpzqHzycgsCEIBA IgQ0quk5iGVMqvfvEcpzHfPrfvpptqpeNLpjSuGWLVuGUk3bsjsmlCI8jeRqr1HPGtYlUl+C5557 TtvWGEYuvvhiXg0aTLiEAATSQ+Cpp57Sfmy2P3/+85/tSJ+Yzz///JVXXnESaFPTgMe1OlkyEUAI yzZTx44ddZChvRz1ggsu0LBD2WzcgAAEIJACArfeeqvtRbVCKAt67+i2s99++7kvCddCwN3PtcNV WYx0aFSLET/++GPbw9NOO60qJ0kMAQhAIBECTZs2tZ9gWmvhdqbi0KgSG3twe67WYGjUTTUnYZ3l 9OyzzzpbCpVqpRlTBx98sLZ4z0klqQYEIJA1AtoyrdzceLsqnp0//b63U/rHSPl00pOTRvrqhJ1A 1neXzPCs0fvvv18HITkt4ROQgGlTIncC7YimM3tLMd999537lpr5iSee0C7v7kjtqjB48OBXX33V HUkYAhCAQJwEtIuynmZDhgy58sorte2Lf9GaL2Mn0A6idmTFGJ1QqHIrJiNBUAJ2V90dE9RKlemq WkeoRaNulxTWWRZrrLGGXhYG+dRwJFiVtSE5BCBQUAJaJFZ6Ok2YMOHEE09ccskly4HYaKONZs+e bTzKdGnMbwgyNFoqQkeO29acGB9PynnoGe8Y9Ax4ZslkpGf1nMiIqhRcCLVk0HGmtsDkyZMjqgVm IQCBghNwhLD0dNICCU1r1+7YvXv31hR3qdEqq6yiXqPWSGgJoOcTrH///m6GwYVQu9J4GixFIoRu qpXDPih1q3L+mlIEF8Jtt93W38OKdydNmlSTj2SCAAQgUIGAIYQVH0dGAm1CabzMCy6EGuvy7GKW isi6ELJ8osI3j9sQgAAEckBAg1V77723dKu2uuhgn8cee6y2vOnPhRCmv43wEAIQgECdCEj/pIJ1 HK/SlJk6OZHizAhhihsH1yAAAQi4CGjbzyeffFLH4LjiKge1NUzfvn3LHc5TOf8fKfQ+Untw/3GV q/8Rwlw1J5WBAARyTEBz2nUGuDa9OuaYY959992KNdUe3JtssolUcPjw4RUTV0xQ2oO7YrIsJqgX s9P+I9TGi9yYfaM4CEAAAhkisOyyy/bs2bN79+4dOnTQiTrNmjXT4KeO09Hn66+/1r96sZeh6sjV pAQCIczW9wRvIQABCOSWQFJCyNBobr9SVAwCEIAABIIQQAiDUCINBCAAAQjklgBCmNumpWIQgAAE IBCEAEIYhBJpIAABCEAgtwQQwtw2LRWDAAQgAIEgBBDCIJRIAwEIQAACuSWAEOa2aakYBCAAAQgE IYAQBqFEGghAAAIQyC0BhDC3TUvFIAABCEAgCAGEMAgl0kAAAhCAQG4JIIS5bVoqBgEIQAACQQgg hEEokQYCEIAABHJLACHMbdNSMQhAAAIQCEIAIQxCiTQQgAAEIJBbAghhbpuWikEAAhCAQBACCGEQ SqSBAAQgAIHcEkAIc9u0VAwCEIAABIIQQAiDUCINBCAAAQjklgBCmNumpWIQgAAEIBCEAEIYhBJp IAABCEAgtwQQwtw2LRWDAAQgAIEgBBDCIJRIAwEIQAACuSWAEOa2aakYBCAAAQgEIYAQBqFEGghA AAIQyC0BhDC3TUvFIAABCEAgCAGEMAgl0kAAAhCAQG4JIIS5bVoqBgEIQAACQQgghEEokQYCEIAA BHJLACHMbdNSMQhAAAIQCEIAIQxCiTQQgAAEIJBbAghhbpuWikEAAhCAQBACCGEQSqSBAAQgAIHc EkAIc9u0VAwCEIAABIIQQAiDUCINBCAAAQjklgBCmNumpWIQgAAEIBCEAEIYhBJpIAABCEAgtwQQ wtw2LRWDAAQgAIEgBBDCIJRIAwEIQAACuSWAEOa2aakYBCAAAQgEIYAQBqFEGghAAAIQyC0BhDC3 TUvFIAABCEAgCAGEMAgl0kAAAhCAQG4JIIS5bVoqBgEIQAACQQgghEEokQYCEIAABHJLACHMbdNS MQhAAAIQCEIAIQxCiTQQgAAEIJBbAghhbpuWikEAAhCAQBACCGEQSqSBAAQgAIHcEkAIc9u0VAwC EIAABIIQQAiDUCINBCAAAQjklgBCmNumpWIQgAAEIBCEAEIYhBJpIAABCEAgtwQQwtw2LRWDAAQg AIEgBBDCIJRIAwEIQAACuSWAEOa2aakYBCAAAQgEIYAQBqFEGghAAAIQyC0BhDC3TUvFIAABCEAg CAGEMAgl0kAAAhCAQG4JIIS5bVoqBgEIQAACQQgghEEokQYCEIAABHJLACHMbdNSMQhAAAIQCEIA IQxCiTQQgAAEIJBbAg1yWzMqBgEIZJnAyy+/vOaaa2a5Bt6+b7755iNGjPC+R2xCBBDChMBTLAQg 4EugWbNmLVq08E2SyZv169fPpN+5dpqh0Vw3L5WDAAQgAIFKBBDCSoS4DwEIQAACuSaAEOa6eakc BCAAAQhUIoAQViLEfQhAAAIQyDUBhDDXzUvlIAABCECgEgFmjVYg1KpVq549e1ZIFNLtKVOmvP/+ +yEZq92MpurFNm196tSp7777bu2+khMCEIBAnQkghBUQrrPOOs8++2yFRCHdfuGFF/r37x+SsdrN rLbaalrCVXv+anK+9dZb6623XjU5SAsBCEAgZAIMjYYMFHMQgAAEIJAtAghhttoLbyEAAQhAIGQC CGHIQDEHAQhAAALZIoAQZqu98BYCEIAABEImgBCGDBRzEIAABCCQLQIIYbbaC28hAAEIQCBkAghh yEAxBwEIQAAC2SKAEGarvfAWAhCAAARCJoAQhgwUcxCAAAQgkC0CCGG22gtvIQABCEAgZAIIYchA MQcBCEAAAtkigBBmq73wFgIQgAAEQiaAEIYMFHMQgAAEIJAtAghhttoLbyEAAQhAIGQCCGHIQDEH AQhAAALZIoAQZqu98BYCEIAABEImgBCGDBRzEIAABCCQLQIIYbbaC28hAAEIQCBkAg1Ctoc5CEAA AmEQuO2221544YUwLFW20a9fv/XXX79yOlLklABCmNOGpVoQyDiBa665JrYaXHDBBQhhbLRTWBBD oylsFFyCAAQgAIH4CCCE8bGmJAhAAAIQSCEBhDCFjYJLEIAABCAQHwGEMD7WlAQBCEAAAikkgBCm sFFwCQIQgAAE4iOAEMbHmpIgAAEIQCCFBBDCFDYKLkEAAhCAQHwEEML4WFMSBCAAAQikkABCmMJG wSUIQAACEIiPAEIYH2tKggAEIACBFBJACFPYKLgEAQhAAALxEUAI42NNSRCAAAQgkEICCGEKGwWX IAABCEAgPgIIYXysKQkCEIAABFJIACFMYaPgEgQgAAEIxEcAIYyPNSVBAAIQgEAKCSCEKWwUXIIA BCAAgfgIIITxsaYkCEAAAhBIIQGEMIWNgksQgAAEIBAfAYQwPtaUBAEIQAACKSTQIIU+4RIEikag QYMGjRo1atiwof4tBebNmzdr1qzZs2fr37lz5xYNCPWFQJwEEMI4aVNW4Qi0aNGiU6dOyy+//HLL Lde2bds2rk/r1q111axZMylfvXr1fNDMnz+/pIgSxR9//HHChAnff/+9/nUCX3755eTJk30scAsC EPAhgBD6wOEWBKogIFVb7Y/PSiutJPGTBLZs2bIKE2WSLrbYYk0XfnS/ffv2q6++up1w0qRJ77// /gcffFD695NPPpkzZ46djBgIQMAmgBDaTIiBQCAC6uStt/Cz1lprdevWbemllw6ULZpE7dq123zh p2RePcj//Oc/zy38vPfeewsWLIimWKxCIA8EEMI8tCJ1iIdA/fr111133T59+pT0T52zeMqtoZTG jRtvsvBz/vnna9T0+eeff/rppx9++OEZM2bUYI0sEMg3AYQw3+1L7UIgIMHbYostttxyy/79++vF XggW4zWhruruCz9Tp04dNmzYLbfcMmLEiHhdoDQIpJoAQpjq5sG5BAn06tVr0KBBf/3rX3v27Jmg GyEWrZk7By38jB49+qabbrrxxhunT58eon1MQSCjBFhHmNGGw+2oCEj/zj333M8++2zUqFGnnHJK blTQzUtvNC+99FLNNT3qqKM0iOq+RRgCBSSAEBaw0amyB4HOnTufffbZJf07+eSTu3Tp4pEoX1Ea Mr3ssstU5f3220+vP/NVOWoDgSoIIIRVwCJp/gg0b95cMjB8+PCxY8eeeuqpRdA/oxG1zOPmm29+ 5513evToYdziEgIFIYAQFqShqaYHgUsuuWTixImSgd69e3vcLlKUBoTffvvtk046ia5hkZqduv4/ AYSQr0JxCWgijDZ2KW79F625Nrg577zztPpQo8SL3uEKAjkngBDmvIGpHgSqIqAlklpcobWSVeUi MQQyTQAhzHTz4TwEwiegtZLakWbvvfcO3zQWIZBKAghhKpsFpyCQKAENk952221nnnlmol5QOARi IoAQxgSaYiCQOQJDhgw55phjMuc2DkOgWgIIYbXESA+BAhG46KKLtL1OgSpMVQtJACEsZLNTaQgE I6AToP71r39tvPHGwZKTCgKZJIAQZrLZcBoCsRFo0qSJjq1YZpllYiuRgiAQMwGEMGbgFAeB7BFo 27atdujOnt94DIFgBBDCYJxIBYFiE9DmA9qLrtgMqH1uCSCEuW1aKgaBcAnowIpOnTqFaxNrEEgD AYQwDa2ADxDIAAEdZ3jllVdmwFFchECVBBDCKoGRHAIFJrDtttuuu+66BQZA1fNJACHMZ7tSKwhE ROCss86KyDJmIZAUAYQwKfKUC4FMEthiiy023HDDTLqO0xAoQwAhLAOGaAhAoAwB9iAtA4borBJo kFXH8RsCWSYwf/78qVOnTrE+06ZNa9y4sU5JbN68uf7Vp2XLljogsGPHjump7mabbbbKKqt8+umn 6XEJTyBQFwIIYV3ohZxX0xB0SnjIRqs3p4dv9ZnI4U1Agjd27NiRI0e+++67H3744Y8//ljSPqmg bnnn8YpVo6y88LPqqqtqcFKnBtarV88rYUxxe+6556mnnhpTYRQDgYgJIIQRA67GvKanr7322tXk IG3qCMybN+/jjz+W7JU+7733njp5dfdy+vTpoxZ+ZOqMM87QhmeawDlgwACJYsOGDetuv1oLe+yx x2mnnbZgwYJqM5IeAikkgBCmsFFwKWMExo0b9+yzz5a6fR988MHMmTOjrsDEiRO155k+Xbp0ueCC C3bYYYeoSzTsa2V97969hw8fbsRzCYEsEkAIs9hq+JwKAtK8Rxd+JIFJOaRx14EDB0qTtO3LWmut FacbGh1FCOMETlnREWDWaHRssZxPAhrz1HG1K664Ys+ePXV0bYIq6PB99dVXtaTh3nvvdWJiCOy4 4446pCmGgigCAlEToEcYNWHs54SA5rncddddt9xyizqCKazSnDlzdt111x9++OHwww+Px71WrVr1 6tVLPwviKY5SIBAdAYQwOrZYzgOB33///emnn7711lsff/zxuXPnprlKmrpyxBFHNG3adP/994/H zz59+iCE8aCmlEgJMLIRKV6MZ5iAZntefvnlmo2i+ZkPPfRQylXQAX3sscd+9913zmWkgb59+0Zq H+MQiIcAQhgPZ0rJEgEJyfHHH7/sssseffTRX331VZZc/9OftELxoIMOisdnTdLhNWE8qCklUgII YaR4MZ4xAhro05u2lVZa6aKLLvr1118z5v0f7j7zzDMazv3jKsL/9ZqwR48eERaAaQjEQgAhjAUz haSegFa+b7/99lqBMGzYMC2KT72/FRy8++67K6QI6bY6hSFZwgwEEiOAECaGnoJTQkA7n2klwJpr rqk1gSlxqe5uqC6zZs2qu52KFrp161YxDQkgkHICCGHKGwj3IiQwZsyYwYMHazmg5sLkbLew3377 7amnnoqQ3R+mtfv2H0H+h0BWCbB8Iqsth991J6Cx0LobSa2F999/X5vORO1e165doy4C+xCImgA9 wqgJYx8CyRD4/vvvYyhY23/roKgYCqIICERHACGMji2WIZAkgXiEUDVkdDTJZqbsMAgghGFQxAYE 0kcgNiFkdDR9jY9H1RFACKvjRWoIZIWAVtbH46o234mnIEqBQEQEEMKIwGIWAkUh0K5du6JUlXrm lABCmNOGpVoQiIvAUkstFVdRlAOBSAgghJFgxSgEikMAISxOW+e1pghhXluWekEgJgJt27aNqSSK gUA0BBDCaLhiFQKFIUCPsDBNnduKsrNMbpuWiqWBQOvWrXWWhVadt2nTRmH96wRatGjRuHHjhg0b NvrjUwrXr1+/Xr16dXc+FCNB3NAZFPJZJxgHSUwaCKSQAEKYwkbBpUwSkLCtscYa3bt3l/KtuPCj gCIzWZlqnJbiSt0nT55cTSbSQiBFBBDCFDUGrmSLwBJLLLH22mvr5KbSp3PnzrF1wtIGSp1dhDBt jYI/wQkghMFZkRICf5LUqdu3xcLPhhtuqMFMoIhAkyZN4ACB7BJACLPbdngeH4EGDRpstdVWO++8 8+abb7700kvHV3BGStJbzox4ipsQ8CCAEHpAIQoCDoHVV199n3322X333dk/xWFiBxBCmwkxGSKA EGaosXA1PgLqAu6xxx6HH3643v/FV2pmS0IIM9t0OP5fAggh3wMILEJAr/322muvk08+WXM+F7nB RXkCCGF5NtzJAAGEMEWNpJVY06dPT9whdYYWX3zxxN2I34HFFlts//33P+WUUzp16hR/6ZkuESHM dPPhPEKYou/Ayy+/3L9//8QdWn/99d94443E3YjZAb0LvOmmm9Zdd92Yy81HcQhhPtqxsLVgi7XC Nj0V/38C2t7l7LPPHjlyJCpY83cCIawZHRnTQIAeYRpaAR8SI9CtW7cHHniAM9br2ACsp6wjQLIn S4AeYbL8KT1JAttss40GgVHBurfBggUL6m4ECxBIigBCmBR5yk2YwHHHHffYY49pm7SE/chF8Qhh LpqxuJVgaLS4bV/YmmubtBtuuOGAAw4oLIHQK87RE6EjxWCcBOgRxkmbslJB4LLLLkMFw20JhDBc nliLmQBCGDNwikuYwKmnnnrkkUcm7ETuip83b17u6kSFCkQAISxQY1PVQw45RCsl4BA6AXqEoSPF YJwEEMI4aVNWkgQ22GCDq666KkkP8ls2PcL8tm0haoYQFqKZqWSzZs3uuOOO+vXrgyIKAvQIo6CK zdgIIISxoaagJAkMHTpUJ8gn6UGuy6ZHmOvmzX/lEML8tzE11Hnyhx56KByiI4AQRscWyzEQQAhj gEwRSRLQmRJaL5GkBwUoGyEsQCPnuYoIYZ5bl7qJwC677MImalF/E3hHGDVh7EdKACGMFC/GEyag 7uBpp52WsBMFKJ4eYQEaOc9VZIu1PLcudRs8eHCmu4Paw3P27NkzXZ9Zs2YF3NizSZMmOmQxnu8A QhgPZ0qJiABCGBFYzKaCwN///vdU+FHeiWnTpn298PPNN984gQkTJsyYMUPyJxUMKHt2CV26dPns s8/s+ChiEMIoqGIzNgIIYWyoKShuAqussspaa60Vd6kBypM+vbTwM3z48EmTJgXIkfYkvCNMewvh ny8BhNAXDzezTGC33XZLj/vq3t1///0vvPCCFHD8+PExONagQXx/3QhhDA1KEdERiO9PJbo6YBkC ngR23XVXz/iYI3/77bdrr732kksuibnz16JFi9hqytBobKgpKAoCCGEUVLGZPIG1115bL8mS9ePn n3++/PLLr7zyyilTpsTvSZxnDtMjjL99KTFEAghhiDAxlSIC/fv3T9abjz76aJtttvn222+TciPO HiFCmFQrU24oBFhHGApGjKSOwMYbb5ygT3oXKAcSVEHVPU4hZGg0wS8bRdedAEJYd4ZYSB2BevXq bbjhhkm5dcstt2y99da//vprUg6UymVoNFn+lJ4hAgyNZqixcDUoge7duy+55JJBU4ea7vXXXz/g gANqXvwXoi9x9gizPjQap/+NGjUKsZUxFQoBeoShYMRIughstNFGiTg0Z86cAw88MA0qqOrHKYRZ HxpVw8X2hdHRmLGVRUEBCSCEAUGRLEsEVl111UTcPf/888eMGZNI0XahDI3aTMrFxCmEiy++eDk3 iE+KAEKYFHnKjZDAiiuuGKH1MqY//fTTc889t8zNBKKXXnrp2EqlRxgcNT3C4KxiS4kQxoaaguIj sNJKK8VX2B8l3XjjjXF2LP4otuz/se24LQ/ifMdWtsJ1uBFnwyGEdWioqLIihFGRxW6CBBLpET76 6KMJVtkoWuNvnTt3NiKju0QIg7NFCIOzii0lQhgbagqKiUC7du3ifw0zevTozz//PKYaBihG3UGd xRggYThJEMLgHOP/cgb3rbAp4/tTKSxiKh4zgWWWWSbmElXcI488En+hPiX27NnT5264t7KugqKh Ux7DZeJjLamFPT4ucQsh5DuQNwKJDD09+eSTqeIYpxBmfaaMGu6nn36KrfniHLKOrVJZLwghzHoL 4r9JIJGhJ52pa/qR6HWcQpiDHmGcQqhjMhP9alC4BwGE0AMKUZkmEH+PUCvof/jhh/RA0w5zcU4Z zUGP8Mcff4yt+VZYYYWGDRvGVhwFBSGAEAahRJosEYi/R6jjllIlBqutthrbylT1lY2zR6gDkxNZ 3lMVkKIlRgiL1uL5r2/8Qjh58uRUYY35ROIcDI3q8OQ4lxKuvPLKqfrC4AxCyHcgbwTify7HfPR8 xQbbbbfdKqYJMUGqesM11yvOTmFSWwDWDCf3GRHC3Ddx4So4Y8aMmOs8ffr0mEv0KW6DDTaIeT+B fAjhxIkTfaiGeyvxU6PDrU4OrCGEOWhEqrAIgfiFsFWrVot4kOjF7rvvHnP5c+fOjbnEKIr74osv ojDrabNPnz4tW7b0vEVkIgQQwkSwU2iEBGbOnBmhdS/Tbdq08YpOIE4TMXbeeeeYC85HjzBOIdSs 0S233DLmZqI4HwIIoQ8cbmWSQPw9wtatW6eElMbcllpqqZidoUdYA/ABAwbUkIssERFACCMCi9nE CEyZMiXmsjU0qqV7MRfqWdwRRxzhGR9pJD3CGvButdVWrCasgVtEWRDCiMBiNjEC3377bcxla0BS S/diLtQubpttttHj1Y6POgYhrIGwfjwdfPDBNWQkSxQEEMIoqGIzSQIaGo1/n5d+/folWec//alx 48aXXXZZIj7kQwi/++67OLfeVksNGTIkzn0PEvluZKVQhDArLYWfVRD45ptvqkgdRtLEhfDYY49N ajfn+fPnh4EwYRuqxahRo+J0Qm9zTzjhhDhLpKxyBBDCcmSIzzCB+IWwb9++cZ7/Z7TNsssue8op pxiRsV3mQwiF66233ooNWqmgY445Zvnll4+5UIqzCSCENhNiMk/gs88+i7kOmjg6ePDgmAt1ihs6 dGj8W407pSf4C8DxIZRA/ELYtGnTZ555Zumllw7Ff4zUTAAhrBkdGdNLIP4nmlicdtppiUjCgQce uMsuuyTYGPXr10+w9BCLTuRro+3WXnzxxfgXvYTILQemEMIcNCJVMAmMGDHCjIr+Wk+0+AVJy9Gu vfba6CvnV0JuhPDzzz/XQSJ+VY3mXvfu3V944YUOHTpEYx6rlQkghJUZkSJzBL7//ntNAozf7XPO OSfO7dY22mijYcOGJa5DiTsQYkP/5z//CdFacFM9evTQeP6ZZ57ZvHnz4LlIGRYBhDAskthJF4FE OoXa7free++NRxi0cvHxxx/XS6bEuWsZZeI+hOXAk08+GZapau3oLa8WVIwdO/aggw6K/yixar3N WXqEMGcNSnX+n8Dzzz+fCAttcnbhhRdGXXSnTp00ySLO3qdPjbSE0edutm498cQTyTq8zDLLXH/9 9Rqhfemll0466aS11147kRfPyUKIv/T8/JSLnx0lppnAo48+qpdniTxEtKRPD7Jzzz03Ij6aHaNp ouk5vqBJkyYR1TR+s+PHj3/33XfXXHPN+It2l6jfFlqZqs955503derUCRMm6LhEfX788Uf9q2OE 3YlDCWs/pttvvz0UU1k0ghBmsdXwuTIBHZar9z29e/eunDSCFHpZ2KtXr3333XfatGkhmtfQ6403 3rjpppuGaLPuphJcuVF3520LGnBOXAjdXmn3mRg2oNEfS5GFkKFR91eOcK4IPPTQQwnWZ9CgQW+8 8UbPnj1D8UGbemtD7Q8//DBtKqjaxfCYDoVhQCOPPPJIwJQkyw0BhDA3TUlFTAIPPvjg77//bsbG eK1p8dq1Sw9WvempuVhtnHbyySdLAq+44op09r00WSY947Q1c3Yyvvfee2+//bZzSaAIBBDCIrRy QeuoFRQPP/xwspVXT2677bbTg/XZZ5899NBDu3btGtAfjYJqI8qRI0dqGqFeN3br1i1gxkSS5Wxv lMSXZibSiEUulHeERW79/Nf90ksv1RBlGuq5+cKPPNEax1deeeWrr75aOPvhv//MnDlTcwXbt2+v JdWlT8eOHSWEaXA7oA/t2rWTYAdMnP5kWp158cUXp2RSbvpx5cBDhDAHjUgVyhJ4/fXXtaBwvfXW K5si9hsSvPg3oIm6ljnrEeqniWaOHH300VFzw35KCDA0mpKGwI2oCFx00UVRmcbuHwTUI/wjmJP/ L7/88tmzZ+ekMlSjEgGEsBIh7mecwAMPPJDUvlkZJ1eF+xrRrSJ1FpJ+/fXXV111VRY8xccQCCCE IUDERMoJHHnkkbk5My+dqHUgYjodq4tXmqM0ZcqUulggb1YIIIRZaSn8rJ2A9gq5+eaba89PzkoE cimEUkFtjFCp6tzPAwGEMA+tSB0qEtAB7pMnT66YLGcJZs2aFU+NcimEQqfR0Q8++CAehpSSIAGE MEH4FB0fgR9++GH33Xcv1ACpTtc75JBD4kH85z//uVGjRvGUFWcpc+bMGTx48PTp0+MslLLiJ4AQ xs+cEpMhoLNPo9sIO5kqlS9Vw3rbbLPNa6+9Vj5JmHcaNmyoc4nDtJgaW5988ok2t0uNOzgSCQGE MBKsGE0nAR18+u9//zudvoXolfoxAwcO1EGvmvoY2xoAHS0bYhVSZerWW2+98847U+USzoRLACEM lyfWUk1AW49qo5nRo0en2ss6O6eTXUt6r/pqgLTO9gIZCGt78UCFxZ5o//331wGQsRdLgTERQAhj Ak0xKSGgLc10du4XX3yREn/CdUPKJxV0n6cTm+rr2Klw65Iqa+pk77DDDi+++GKqvMKZsAgghGGR xE5mCGi3z80222zcuHGZ8TiYo5ojutNOO+nAQndyHQXlvowuvO6669avXz86+4lbFt4BAwYMHz48 cU9wIHQCCGHoSDGYAQJ6eda3b9/3338/A74Gc/HXX3/dcsst7dM2Ypsvs8QSS+R7dFTtMGPGDO2d bvzUCNY+pEo1AYQw1c2Dc9ER0Ojo+uuvn4+Hmg6c6tOnjw61sHFpM4Gff/7Zjo8iJoWHBodeTU0+ 0uDzvvvuG9sazdCrgEGbAEJoMyGmKAT0LNNDbY899sj0QrH77rtPXbFyvVstnbznnnviadFdd901 noISL+W2227bYIMNdFpy4p7gQCgEEMJQMGIkwwTuuuuuddZZJ7ZJJSGSmjp16t57760V3/5bYsa2 efQaa6whkiFWMM2mdJC96vu3v/0ttg53mmlk3TeEMOstiP8hEPj4448118M92TIEoxGb0JEamqh5 xx13VCxHS8Kff/75islCSRDbXjaheFtHI5qje80113Tp0uXqq6/WtNI6WiN7ggQQwgThU3SKCGge xD777KN3P+nfklSn22u7uN69eysQkODQoUMDpqxjMp05XLSD3dUjPPzwwzt16nTGGWdoQnIdAZI9 EQIIYSLYKTSlBPTuR080dWvGjh2bQhe1CPKYY47p2rXr3XffvWDBguAeqkf40ksvBU9fc8rFF1/8 tNNOqzl7djNOnDhR+xbpy7PbbrsJ9bx587JbFzyPnID+en0+kRdffQGaLe3jcLi3Yhu/8seguZTh 1svH2ogRI/ydSeruYostpl3KtAjPx/k4b6nboSOBWrZsWTMQvb2Lx2ENEq688so1+5mPjEsuuaQ6 x3r9rIaLB3sdS4ltmY1/+/rXwj9vlu5mrp4IoX+T1fFuaoXQ+aPSCORjjz2muZd1rGnN2YVIY7ZN mzZ1XKo58MADD9TsRlUZn3jiiZqdzFnGBg0arL322pqcfN1117311lszZ86simRsiQsuhPVi/tqp XX1KrFcvbn98nOEWBBwCOlpBu01qrZ4mCsazf8ovv/wi3br22mu1ENBxg0DWCUgX1V1ebrnlOnbs qEMc9VGgTZs2+qGjT5MmTUr/xn+m1euvv96vX7/E8SYlEHELT1L1TLyBcSAfBLR/ihaQ/WXhRxNN GzduHGK99NcxatQobe789NNPv/nmm7xnCpEtpjJBICmBQAgz8fXAyTQSkApKC6WJG2+88fLLL996 4aeq3/Ja0a9ZOVreoPUbY8aM0dYwmnORxqriEwRiIYAQ/hczQ6OxfNkoJEICzZs3lyBqsMv9b7Nm zbR5jT7TXB/ti6b1D3r7GKE3mIZApggghP9tLoQwU19anIUABCAQJoGkhJB1hGG2IrYgAAEIQCBz BBDCzDUZDkMAAhCAQJgEEMIwaWILAhCAAAQyRwAhzFyT4TAEIAABCIRJACEMkya2IAABCEAgcwQQ wsw1GQ5DAAIQgECYBBDCMGliCwIQgAAEMkcAIcxck+EwBCAAAQiESQAhDJMmtiAAAQhAIHMEEMLM NRkOQwACEIBAmAQQwjBpYgsCEIAABDJHACHMXJPhMAQgAAEIhEkAIQyTJrYgAAEIQCBzBBDCzDUZ DkMAAhCAQJgEEMIwaWILAhCAAAQyRwAhzFyT4TAEIAABCIRJACEMkya2IAABCEAgcwQQwsw1GQ5D AAIQgECYBBDCMGliCwIQgAAEMkcAIcxck+EwBCAAAQiESQAhDJMmtiAAAQhAIHMEEMLMNRkOQwAC EIBAmAQQwjBpYgsCEIAABDJHACHMXJPhMAQgAAEIhEkAIQyTJrYgAAEIQCBzBBDCzDUZDkMAAhCA QJgEEMIwaWILAhCAAAQyRwAhzFyT4TAEIAABCIRJoEGYxvJra/vttz/77LOd+k2ZMuUvf/mLc0mg IoGDDz748MMPd5L9/vvvvXr1ci5DDDzwwAOrrLJKRYPROVCx6BoS7Lnnnv/4xz+cjN99993WW2/t XBLIAYGNNtrouuuuc1dEfyD6lrpjCEdHACEMxLZVq1bdu3d3kv74449OmEAQAksvvbQb4Lx584Lk qiFN586d3QWVs5CtR0ybNm3clWratGm5ehGfUQJLLLGEu4lVi3r16mW0Lll0m6HRLLYaPkMAAhCA QGgEEMLQUGIIAhCAAASySICh0Sy2Gj6XJfD3v/+9ZcuW9u311lvP/ZrNTkAMBCBQWAIIYWGbPp8V f/HFFz0rNn/+fM94IiEAAQgwNMp3AAIQgAAECk0AISx081N5CEAAAhBACPkOQAACEIBAoQkghIVu fioPAQhAAAIIId8BCEAAAhAoNAGEMPzmb9Ag2rm4Udv3JNKoUSPPeCJ9CMTfUjGUGEMRPkh1q379 +v4JUntXm8XE7HzijZXatjAci/aRbRSW18uGDRvusMMOu+6660orrbT88ssvueSS06ZNmzRp0n/+ 85+HH3740UcfXbBgQW1179Sp06abbqq9lzp06NCxY0f9q0+TJk1++eUXbfP2ww8/vPPOO08++eS/ //3v2bNn11aEZ67WrVur3P79+6+xxhpLLfwsvvji2pbs119//fLLL996663nnnvuiSeeiGGjMsFc e+21DSflwNSpU43IZC+TainVev31199///3XWmut5ZZbrm3btvrujR8/fvTo0ffff//jjz8+ffr0 OpLR3q1//etft9hiC9VRW+WpRebMmaPv3uTJk0eOHKmvwfPPPz9jxoyaS5HP7o1nv/rqqy+++MJt bbHFFttuu+123HHHFRd+lllmmZ9//lnfQ31GjRp19913a/NVd/pUhQVt5513FkAF2rdvLyGcMGGC HH7qqaduvfVWhcP1dtVVV91mm230l6vi2rVrp8bSk0Et9f3337/yyiuPPfbYG2+8EcOfbbiVyqE1 SYLPJ7UV3nfffd1u6ynguHrYYYdJ89x3jbCEsEWLFk76IAGt/r700ks///xzw1S5Sz37lF5f+iDG /dN069ZND1D9qZQry4n/9ttvTz75ZKmkv8HS3dNOO83JqMDcuXOD5JLx9957z51R4YsuuihIXiON tk132wlrs9N4Wuroo492O68vRql2Xbt21S8h9y0jrJ8Lf/vb3yQkBo2AlxLXV1991bBpX0prTz/9 9Jp3QJVIuG1eeeWVjnvqQh100EGffvqpO4ER1nf1tttuk8Y4uVIS0I8GibThrftSX8Krr766NNay 5ZZbum8pXG1nThg/+OADw4h9qR8Z+tWeEkS2G7bD7hg7fVZj3LWyw6mtlacQ6ht800032bWwYz75 5BM9swLWbtiwYbaFIDGSZx1TELAUO5m2/b3jjjuCSKDbmVmzZp100km2NSOmBiHUo23MmDHushQ+ 88wzDcsBL6MQwthaylMI1UP67bffDD6el6+99pq27Q4IqpRMHRcJknYh8DToGfnNN99ssMEGVZVS SmwIoaiW4qUE//rXvzzLsiOHDh1aQ9HRZVG37KeffrL9tGNGjBihPm5dhFADURoTsi37xKg/qr/3 6Kpfs2Ufn3WrZrOpy5jRenoK4T333ONfHfddndykr3uQ9njmmWfcGasNH3HEEUFKMdJoICXIz0lP Z3TykWHNvqxWCDXCPHbsWKO4uuyRFoUQxtZSthBqyFpDXgYfn8u33347+LCEFKg2jZcw9+nTx259 /xhDCEt7AzVu3Lj0TsGnUu5bqRLCzTbbTD8Q3e75h1966SWdq2WkCdgjVK/df0TKMOtc6itR7c8j /3YM5a7jnmcglCI8jfCO0BNL5chdFn6cdHoqSUg++ugjvcnr0aOHrXkatzzvvPP2228/J0tVgZkz Z2pMQ2Ni+uhxo7dBkq4VVlihS5cuhp0rrrhCztxwww1GvM/lyiuvrBEwjeTYacaNGzd8+PCJEyfq lWSzZs2URiVuuOGGkc6d+fOf/6ynoSro+KO/iiOPPPKqq65yYlIbiLSlSrXWS2L9CHM3gb4Sb775 pl6dCppOttOrNIOP3rPq98rmm29uxHteXn/99YMHD7Zv6Q2xitBHnXV1/jTIYRwV1Lx5c3U1NFys PwQ7e8CY0mD7OeecM2DAADuLBEZu6O2XfSslMXqjLwmXkBv+6MWqxrE1b0AB/c7baqut9HK0lKZf v376hhvpg1zqVFRNERB2I7FePWg8WU+kzz77TM+K1VdfXV7pNb87mb4SeoXcu3dvDQK54wnHQcBT 553IODyoqQyjR6iXIs64h4bvNFtB82XchvW1+/jjj516lQJ6JRDkD9jpZ2hgSmF1ZZZddlnjieOU pb8ECZVRkB6LthI7WYyAnqrvv/++YUGXmuajboeRuHQpRRw0aJCTK9weoR6vmuvh9kd/qOLv6Unw yEh7hFG3lNEjdMPRm1ppkjEXUTOq7rzzTneyUljzuSoSk1jaGdXWPXv2NN416rfdMcccY4+lS5KN lP6FGj1CTeuQkLt7VHqm61hsTTnRd6NUU/Vu1113Xb0IeOSRR0repqdHqDkpBkDNJNLfi/7Q3Bz0 O+a4447zGXyu2COUjmqujVGWuB1//PHuH0mlQtUiOhxbDy4jfZD3Gm63ow4b7hmXUZcen32jYsZl fH5UWZIhhI7b+jlWbsRJQ/CaTeekLAU0s6ZiyRI/TQq9/PLL1VGrmLiUQI8Jo6DLLrssYF79/Dfy 6q9Fz6aK2aXNe+21l6ZjhCiE+ulqjPPot6363hWdqZggIiGMp6XKCaGGB9z9ZjcEPfhuueUWo2XV v9ePGHcyI6yHtaZiGrk0WuAzD2unnXayB2kPP/xww7LPpSGE6jBpupbjw8033+zvswZj1dNKiRDu vvvujuelgCay9e3bt1z1DzzwwHJaWFEI1Z8zytJo52qrrVauLMVrAvC7777rzqW2K/cV8rET3S23 b3Y4unLjtmzXzR0TtzeBy/MUQo0R+f/y1aRwd+0U1lzzimXqz8Ye6/DPpR+AxrwSdarKdSLdpjTZ 2vg71C/KjTfe2J3GPyy1HjJkiH8a3Q3yjlBvO5x+dombnNG8+YrGgySIQghjaylPIVQTq+fnU3d9 AezX2P6D87vttpvxjdV4Q8XpoFpZYeSSmgb5+pWcN4TQMaUh0IC/gVSWPRrsQya6W1rO4fivgP64 NGbjX5x+HLuzOGF/IbSZ69WJMfjpWa5GZd29bRV3/vnne6ZMJNKpvmcgEZciKdSzek5kJEWGYdRT CPVsrWjbmM2lmXUVs9SWwH7Z7v/bsFSKVjI58EsBvWKszQH/XBWFUO8d1btyO6OOacB3Wv5Fl+5G IYRByrXT1NBSnkJ4xhln2MaNGC2GcSNVuNwxVaWM9hhGwCawxwP13stwptxlOSHce++9y2VJZ7z+ 4gzaL7/8ckVXJXh6B29k1KW/EKodjSxa+FuxrFICLUBy59Vsc/uNZkBToSdzO2aHQy8uMYN23dwx iblVqWBbCNUDC/Kb1/65V24otZILFe5rApibpMIVhzc15UHDUO5cepkR/OViBYcWve0vhOpa6b2m 2xONuFb8Kb1oCRWu0iOENbSULYTqamiqVIU6L7yt4TI3WL3SK9eP1KtoY3hAa9v9xzwcB+whQa3t c+76BzyFUK/YjRef/kbScFcTfNyoFQ6o5RdeeKGRUZc+QqiX90Z6reMKTkDbZRh/blqAHzx7pCmN ehmX0RVd40rb6BzKiuXSq7WK3uqtjJEmopW/GlTUdhvusrS6yH1ph/Vj35jjc8011+jHqZ0y0hit oNJUQ/dosJaaaAK6BuUiLTcp4zW0lO2quhpff/21HW/HGIIkYdO0UjuZYtQpN37b6fEqafRMbEQ+ +OCDxtevqgF2w5ouNd6eudmMxk83vR0M8vpcldXAjE3AJ8ZeEV/VK1K1lGY/ue1rup/7soBhhLDG Rtc8hSA57S2UolvHqoV3bpdatWrlvrTDxpIvTWq94IIL7GSRxugVoOaau99CaaBGo2p6/xppucka r7albG/18s+O9Iy59957jXj3fmbuW2uuuab7UmGtZzdiyl3qtZPx0NfvsJYtW5ZL7x//4YcfGtb8 06fhrn5DaGKt2xPNpNPwvjumXFjdX0OZyqUsxRt/udpBTRNr/bMYd430te2EYNjM9CXrCGtsPk1b D5LTFkJ31yeIBSeNhsI0qCUd1eCqZvcZP96VzJBYY7q2Y8cJGJPZtP+he+s4J1l0AS1W0yx/9xCQ poxKBfVciK7QGCyH3lK2zxq0tCM9Y7QAVF0T97eunBBqspLbgubrVrWHpybIuLPr+yllDfKSzJ2r FNZiO42J2fFpjlGjG289greR6qXEho6Wq6z+rrVS0323hrETQwg1m9RtsIBhhLDGRg/4jNBYvFFA Ve+ltbRcb180gq9F+safmWHWvvQXQt01JtpV9XdrF1dtjF6faGa88R5I094CbkNabXFRp4+upTw9 1y8Gz3jPSCV2C6Fc9UxmfB/Uz6hKjbT+zzAb8C2mkUuXMX8VbQdqiOncubORq9o2MrKXu9Q8beMZ ovUt5RI78c7v5lKg7mMSjuV8BBDCWtpRP7E1xbGWnIHzaEm+lhJusskmgXOYCY2/FuO2XpgbMQHf ORm5artUL1DvRZw/TseIOrXa3EsvqzSLx4lMeSDqlvKsflWvcvVEdotfuRFL45eWLWyenjiRtkvl CnKylAvE+VUs50O18QY9Za9KCG165Ryw90XThvuXXHKJ0pf+oJw/KydQzpQTr5ZS4qp+9zh58xHg HWEt7ag3IrVkC5zn1FNP1YKkuqigivKf72cLYcw/w8v9lWqA7p///GdgVAknjKGl7Brqba5m3Njx 5WKMJ7L9yC5lNHSrWiG00xsGy7lnx2dRCO3KGtjtarpjgie2/3L1l66RFX0U0Ed/WaWP275/WLnc Ywb+iXN5lx5h6ppVM1Z8dpfWyKF+POrPRk9Dw3UtYyr3jDNS6tL+c0rq6fPCCy9o6yzN3Xec1MZd WialqaROTDoD8bSUXfdqBy2Nh6zGn9UjN74/Gj8w9uUK3kcpeWinD/5tNOqY4BPergAAQABJREFU 1FfRcKOqS+MNvfIa2P2t2fTKpbf/csulrCpeOlpV+pwlRgjT1aDaSsNWQc09u+uuuzQPXlNVNfeh 3AiGFCX4olp7brr/UGpEmLSjqaqssVApn36WlkrR71lVVnMH7E5GRG7UYDa2lrJ9Mxa92AmMGPd0 JN3Sigi79e2Yakux0xtaa3jlc6k9ZXzupvOW/W7bBuLjefDEdkv5mOVWQAIIYUBQcSTT6MTFF19s lKQYbSUa5NFQ1U9FY9WXCo1/y0Edf6gdv/SHrf131Lty7/+rIwg0d18rHQOuYzOgRX0ZZ0vZddFb IrtLZydzYoxNEvSG2/4tJdHSuRnudSzVLng1SlHpQb60jpNZD2gLCKMKQXbYd7LY9JxbRsD+y9XP 37r3oW3/jXLzfYkQpqh9Bw4caOz6oXmV2qI+oIsVV9C77dh/TjELoc5U0slKzhNZR5xrEf0666zj OKk/7xNOOCGd7wvjbCkHiBNQ11k/FIJ3l40ncjl9UrxbCIM/mkuO2cJZqGerXVkDu9N8noHgie3X w+pNGmtXPIsg0ocAk2V84MR9y9hgWsuKDznkkIBOqJdgv673ySshNDpbcQqheoE6QNhRQfmpkSXt +KzOitvns846K51LfeNsKTcQJ1yVShkPWW3c49hxB4yJ0LawuRPbYdslw6CdJU8xtj4Z2P0ra9Mr l14vR4xbwY+pMTJy6RBACB0UyQeMdbIaMAz+lsXuDjqv3DwrJuExNrOIUwjdEui4pzegUkfnUgEN AN59990+ZwC5E/uHjTcr1U6rM4zH2VJG0aXLqh6yRuLRo0d72jT2MdBxd8bLRc9cTqQtnJ988olz N/cBm6qB3Z9A8MQ6a9fofSKE/myD3EUIg1CKI40ezcYZ8To5LHjB9t4Q/gvqZfm1115z25cQ1rwC 2m2nLmHNkbnvvvvcFuTSDTfc4I6pLWxsgFAaXazNVPwtZfupYyXsSM8Y/UIypkG99957nim1Yscd L0RBDjBxsugsSSesgH7D1eWcerepTITV/TXOlqmKXvDE+kmnnXfcTBBCN43awghhbdzCz6XTR42Z YzpwLngxRl9KGY3Hn23K2JBCz3cdtGsnizlG52gb29fp6NeDDjqojm7YL1E6duxYm834W8r2M+Cx BsqoY9yN7IbgOXdtgdx///2du/4Bjcwbw8XqX0a93NbfpfjvGmC1IVTAfp526za29fF3XodeuRMo uz0g5E5AuCIBhLAiopgS6PWYsdWnTs0NWLaeQeuuu66RuOIK2aefftp4i6NXklW9aDRKDOVSLunZ bby/vOyyy4L/ZPZ0Q6NJxlucmoeC428pu0bqfrknFtkJSjH6cWNIpvb8M0YCnLz6YWRIl34YuafP OCntgEoxfni99NJLdrIUxuyzzz5yVcv4Ro4cqTMc7OWAwX3WLtvuxBpY3mOPPdwx5cLBf3CULGjU xD3Ur7Ef7UJVzjjxaSSgl0M+nzR6vNAn4zxCQ7F83NbflVFfHS1dLr0WAroTBzxjTENYH3zwgTtj Kfzmm2+WK8iJ1+HURsYbb7zRuRswEGQprv95hHZBWjFiOKY6Vhzste24Y3SihdumTg5y360qHHNL 2ecRqiLXXnttRZ91TIG7ygr7n/ij/e2M9AEHCfQ60MhYbmtv22f7PEJDU+0sYcXoEA/Dbe2vZMzc Dl6WXmbrl4TboOa7VcyuR4QWCrtzlcL+L2jtltpmm20qlpX+BDYHd0z6/Q/qobtWdjioldjTxSOE 2jDQzUQ9D/cWkZ6V1k9+Ta1053LCX3zxhWcWd6T+5mfPnu1kKQWOOuoodxr/sE4yC3KofbVCqKeA hNxwLMij38dbabzboH5T1zygFHNLeQqhvh69e/f2qa+esG+88Ya7ygr779u31VZbGeklDBVH7U45 5RQjlz3K6uNnUkKoXqzhdulS54L5eOt/S6dHGTZ33nlnnyz6Favfu0aW0qW/EGonQiOXBv/tiQI+ ReuWfnBo9CXgD25/U2HdNSplXIZVSvJ2jIoZl8n7V8aDeIRQozQGEI1i+XSD9Av08ccfN7I4l5oX 6v+3VKqr9jNzsjgB9RQrjonpOSt500/gIEfHVSuE8k0qpfFMx6VSQAv4yjRR5WidDyAmboOagFfb RIOYW8pTCFUR9SS0+NKz5hritlVQ2/d4JnYi9Vy2c+ldtTYWd9K4A/oddtFFF7mRlsI77rijO5l/ OCkh1FCw7XkpRss0/X0ud1egNEvIbVZj0fZri1J2DaVoTwl3Yne44h+vhkPd6RXWlgjHH398kBEa /bjRFhYa2VKuIN3WcvUNPd6okXEZenGJGTQqZlwm5lalguMRQs3C0PEoBhPtGWE/VpZbbrlBgwbp N6A78XXXXee+VLhLly6Vavbf+/oJbGTUpWasHH744faLND371l577TPPPLO02ZtSRiSEckw/Vw3H tPxx+eWXD1IpzzTXXHONYVCL6tTRPPDAA6UoWsLv/vgs7Yq5pcoJoeqiZ59+yuj5Kw0rVVnzVgYM GPD2228bNdWPgCBzTWVKR38YefV6VfOV9NJarV8qRfuIajKIPbSojNo2zxN+ucikhFBNb1TTudSh mOW8rRivARLHTimgQZczzjhDpzM6EqUfkaL3yCOPGCndlxWFUHvD2q0sCxpKUTdU7WhsHivP9UBQ P/iJJ57QcIhTFkJYsU3DT+DQ9wyEX15IFuMRQjmrkUbjF2UJlMbBtJpCp40/++yzpd9xBkAN1mkz ZSOv/7CMw0Zn2Y8YMcIw6FxKbtUx1dPtmWee0bw4PROdW6VAdEIoD7WO0ChOP+SdB4pThYABaZvn +xijiNKlPd/SXUqcLWUIoR5/muhk+KzH+nPPPTdmzBjNMzJulS41gOn23yd84oknelpQpH6IqBQ9 Ot1PUnficePG2QsKfcrSraSEUFvzuD13h+uyjYPGaTRj1m3NCat3qIk5+iMy/k6V4Nxzz3WSlQIV hVDo9DvV/uns2NFPH30f9DNXTaapQJ7PDSVGCP2/n5HcdRrJMxBJkWEYjU0I5ew555zjCccnUlJU 6hDo6+5OZu9cWg6GBkLvv/9+d97g4UiFUEN8ek1lOKOpNOUqUjFe+9cYA6SGcefSXwjjbClDCPV7 SGN3GrF0XK0YuPLKKyuScSfQvq8VbdoJ1FI1vHZNSgglD3YVFKNfEjWfm1FiqAEbDah4GveM1HaD alDjVhAhVHHaYVirKYy8VV0ihO5vfkxh/xaKyYnqi4lTCNXd0Sac2vjRn1Xprvo3hx12mFMh7czp zqWZls6tigGNemksVPPI3RYqhpVe0lLReA3vCB2bG220kfELWt2Rvn37OgmqDWh+nU9vwKlyRSGM raUMIdQbXFVZbzf1CHO8LReQ6ms6lTNwGpyV3oM6o9/ljLvjNVYhAQhu30mZlBBq3pDbfydc7Y8G pyLugF7CaRzFsekT0FhOSfM06uNOFlAIVaiGQIcMGaJ1R+7sAcOa7vu3v/3N7XmyYX+3k/UtzNIz Ws84hbCEW+NLni9gHIAaZtGbdmOuh17LOwlKgWo3i9H4qs6BsmfDG2Z1+c4770g4K86pKVWnLkIo C3rFYjigITjtAVbzV1Mv+bSb+UMPPaT5MuVG+SoKYWwtZQih9hwoFa3G0lPbeIA6oNSzGT58uF5N 1UxJo3waVNBwqGPTM6Ch2rrM3U9KCIXl5JNPNn5jaWFMxQW4AXnqx8exxx6rL6onNEXqr0xv+h1r xs+a4EJYsqAXHBpf1ZSCcsW54/UTWbOcjJ0CHU8SDLidtMPROfb/r76jK8CwrLoZMe5L51W8O7LI Yemclk5rVrSOrlVYv+4nLPzo0aM37TNmzIgOjuak6BSkNdZYQxu/adxGz0QVV9pHSgOwesJKQqIr PU7L0nLhtRVdb1+CLxhNsKU0jqdOuWYwqUOmllI3Tt8RbX2pZdfGpl+1UVXHV+/MtP5VvRx9GfT7 QzN0dDiwPvoxpFXkKq42y2nIpX0JRE/bNWio+eWXX77zzjv9n1HV+iw51NSbrbfeWq2jzYwkb9rt T+2i+d7aTLhaa0HS66uomTiaLKMvgz76y1V7aQK2vsx6ZagvhiYEaEQkiKn40/jDj04gEML425oS IQABCEDAg0BSQsgWax6NQRQEIAABCBSHAEJYnLamphCAAAQg4EEAIfSAQhQEIAABCBSHAEJYnLam phCAAAQg4EEAIfSAQhQEIAABCBSHAEJYnLamphCAAAQg4EEAIfSAQhQEIAABCBSHAEJYnLamphCA AAQg4EEAIfSAQhQEIAABCBSHAEJYnLamphCAAAQg4EEAIfSAQhQEIAABCBSHAEJYnLamphCAAAQg 4EEAIfSAQhQEIAABCBSHAEJYnLamphCAAAQg4EEAIfSAQhQEIAABCBSHAEJYnLamphCAAAQg4EEA IfSAQhQEIAABCBSHAEJYnLamphCAAAQg4EEAIfSAQhQEIAABCBSHAEJYnLamphCAAAQg4EEAIfSA QhQEIAABCBSHAEJYnLamphCAAAQg4EEAIfSAQhQEIAABCBSHAEJYnLamphCAAAQg4EEAIfSAQhQE IAABCBSHAEJYnLamphCAAAQg4EEAIfSAQhQEIAABCBSHAEJYnLamphCAAAQg4EEAIfSAQhQEIAAB CBSHAEJYnLamphCAAAQg4EEAIfSAQhQEIAABCBSHAEJYnLamphCAAAQg4EEAIfSAQhQEIAABCBSH AEJYnLamphCAAAQg4EEAIfSAQhQEIAABCBSHAEJYnLamphCAAAQg4EEAIfSAQhQEIAABCBSHAEJY nLamphCAAAQg4EEAIfSAQhQEIAABCBSHAEJYnLamphCAAAQg4EEAIfSAQhQEIAABCBSHAEJYnLam phCAAAQg4EEAIfSAQhQEIAABCBSHAEJYnLamphCAAAQg4EEAIfSAQhQEIAABCBSHAEJYnLamphCA AAQg4EEAIfSAQhQEIAABCBSHAEJYnLamphCAAAQg4EEAIfSAQhQEIAABCBSHAEJYnLamphCAAAQg 4EEAIfSAQhQEIAABCBSHAEJYnLamphCAAAQg4EEAIfSAQhQEIAABCBSHAEJYnLamphCAAAQg4EEA IfSAQhQEIAABCBSHAEJYnLamphCAAAQg4EEAIfSAQhQEIAABCBSHAEJYnLamphCAAAQg4EEAIfSA QhQEIAABCBSHAEJYnLamphCAAAQg4EEAIfSAQhQEIAABCBSHAEJYnLamphCAAAQg4EEAIfSAQhQE IAABCBSHAEJYnLamphCAAAQg4EEAIfSAQhQEIAABCBSHAEJYnLamphCAAAQg4EEAIfSAQhQEIAAB CBSHAEJYnLamphCAAAQg4EEAIfSAQhQEIAABCBSHAEJYnLamphCAAAQg4EEAIfSAQhQEIAABCBSH AEJYnLamphCAAAQg4EEAIfSAQhQEIAABCBSHAEJYnLamphCAAAQg4EEAIfSAQhQEIAABCBSHQIMc VHWxxRZbddVVu3bt2qVLl7Zt2zZv3nzWrFlfuT7Tpk2ruZoy/pe//KV79+4dOnRo06bN5MmTJ0yY 8O67744YMaJmmzFkXH311eXz0gs/iy++uAiMGzdu9OjRcnvu3LkxOEAREIAABCDgTWCB78c7T5nY 9u3bH3bYYU8++eQvv/ziY3X+/Pn33nvvaqutVsZM2eimTZueffbZ0g9P42PHjj3++OMbNKj6l0TH jh133XXXa6655sMPP5w3b57cc38+//zzsg4FuLHKKqtcffXV33zzjafPivz111/vu+++Pffcs3Hj xgHskQQCEIBAfATKPbhK8fH5EXVJYdXzhBNOkH74W3Pf/f333++55x71GgNWsGfPnuo/uS14ht94 442VVlqpos369evvv//+t99++5dffulpx4lUgorWPBMsueSSl1566Zw5cxxT/oHOnTt72iESAhCA QFIE/J9aSXkVfrlh1fPiiy/2N+V5VyOEGjCsWKuVV155ypQpnhbsyO+++26ZZZbxt7nEEkvYGT1j vvjiC39TnnfVOf7kk088DZaLRAg9SRIJAQgkSKDc86oUH51jxZos06xZs4ceeqhly5Y+QHX3scce UwfLJ4371rLLLiubjRo1ckfGGdZY6yuvvKJB0TgLpSwIQAACuSGQNyGcOXPmZ599Nn369HItpAk1 d9xxR7169colOOmkk6oVlQ022ODggw8uZzDqeFVHlYq6FOxDAAIQgEA4BMLq+bqHRvVe7ayzzho4 cKCGNDXJs+SoOmqXXHLJ7NmzPUtcf/31PeujeaG//fabnWXixImXX365irjxxhs9R001p8Zn+kl0 Q6O77LKL7a1iNLv1/PPPHzx4sERd02h79eql8DnnnKNfCaX0DI16fgGIhAAEEiTg+TRzIhN0LOSi nSp5BoIXVhLC119/fdCgQZqKUi5j//79PefUXHjhhZ5ZTj31VNuxn3/+uV27dk56zbjR8gw72X77 7eekMQKGEH766afXX3/9brvtpveLhp2q3hE2adJk/PjxhgVdvvXWW8stt5zhg3MpJprjgxA6QAhA AAIpIWA/zdwxKXEyBDfctbLDwQvYYYcdNCAZJP3NN99sF/T000975n377bftxPvss4+R+OSTT7aT Pfroo0Yy51JCOGbMmGuvvVYdOE1sceK1BsOwU5UQCoKRXZePP/64T9/UKdrpOjsxBCAAAQgkS8B+ oLljkvUtzNLdtbLDYZb0h62dd97ZLmjUqFF/3P/f/+r22d1HjSX+L8UfoYYNG9oDpJqSGkSB/rDx 3//rKIR33323UTWtEgm+RMTtCWEIQAACiRMwHmjGZXTu5W2yjE1KYmNHek7y1JihPYnmqaeesrNr c5YXXnjBiNeU1I022siIjO5S46LbbrutYf/hhx/WOgojkksIQAACEPAhkH8h9OwhaS6JDaVbt252 pAZLnUh3h88d7yTwtODcDTfQo0cPzYIxbF500UVGDJcQgAAEIOBPIP9C2KdPHxuBtjezIzXp1I78 +OOPS5GafqItRp2upN752Yk9LdjJQonR9qqGHY3rGkO+ehFoi6WRi0sIQAACBSeQfyHs27ev3cba odSO9FyNp307Syk17KkNS7WZdenSiXfb8bTgThBi2N49VbuBa7mIxE/zUR988MHvv/9eO65pNYji n3322aFDh2qGbYgOYAoCEIAABGohYLz8NC5rseibx3OmjOa/eK640IbUhj/aFNuZXXneeefp7gEH HFAqUJM/jcS6dLqPvk7972ZdJss88sgjhgPaX0ZKrLUTRrz7Uq883UtB/ucKIQhAAAJJE3A/rOxw dN7luUeo1fFaU2+z05kSml1px2u2ixGpcy003liK1Ap9BUr/KvDTTz8ZiXUZ5zikamc4oEq9+OKL 66yzjhHvvtxqq60++OCDLbfc0h1JGAIQgECRCeRWCHVAks4b0j6cRuuq23TnnXcakbrURBi7m6gN 25yUrVq1UtiRn9I5D87dUkAn/xkx0V3aotuvXz+fdfSOJzqjUAOn7uWMzi0CEIAABApIILdCeMUV V2yyySZGi+qFmVbHq8dtxOvS7g4q0n2GbYsWLRTj3oxbWmjY8TRipAnr0hbC4JYl2EOGDAmenpQQ gAAEckwgn0KojbMPPfRQo9k0cqhZJF9//bURX7rUMbx2vFsItYheCdzJ3HdLedWttFci2mZDifEX wnfeeUdn/2p/VO2mpjeddol62ckuazYWYiAAAQhETsB+/+mOCaV4HYHrtumEDzroIB/7GvN0UjoB 94ZnL730kuJ1uq9jRAOnTspSQJM2nbtBAnWZLKN9wI3SHR923313d+maN6s3mnbiG264wZ2MMAQg AIFkCdiPKXdMsr6FWbq7Vna47iVp+011gGzL//jHP/yNa6MWO5c2xXZy6dBBJbjpppucGHUxjSza ntu5GyRQFyEsd9j9CSecYBe99dZbG67qUp1FOyUxEIAABJIiYD+m3DFJeRV+ue5a2eE6lrfZZpt5 ngtxxhlnBLFsC9sPP/zgZLzuuuvksLN1i0ZKbf/dwulk9AnURQi1J4DtgF6Cut9iOkVrwFY7ABjp J02a5CQgAAEIQCBxAsYzyriMzr38vCPUEYNaWufeBa1ETcfyBRRC+zhfzRR13vnpwCMZLP2rQOvW re1WsS3YacKK8Sxr+PDhWvJhF6Hvk+AY8Zo+GufsHqN0LiEAAQikhEBOhFAbvmipuP1Y13YqmjgT kLXdn9OCitKqCVkobWbt7GG21FJL2WZtC3aasGJ+/PFH25SPA563VlppJdsIMRCAAAQKRSAPQqjZ j88995yjWE776fDeiq8GncQKeJ64tPzyy5fSvPrqqxpLHDlyZOnSiXdb0FCn+zLS8Oeff27bdzqs 9q1x48bZkZ5ybicjBgIQgECOCWReCLVkXiciLbPMMkYjXXDBBccdd5wR6X/pKWPO3taapak9tfUS rmTEiXfb9JRSd4IQw57e2n1ip0TPxf7ffvutk4AABCAAgWISyLYQtm3bVirYqVMno/G0WvzEE080 Iitejh492k6z9tprO5FTp051wu54J9LzSArnbrgBT9H12VnG2RzOcUOTgzy3DncSEIAABCAAgfAJ GLOAjMuqytNWLxqoNCxotxf/9YI+RXTo0MGwpktPddS7Q72iMxJrWaF7ub1PQc6tuswa1YJ6LVs0 fBgxYoRj3Ahcf/31RmItwDDScAkBCEAgQQLGM8q4TNCxkIs2KmZcBi9MkqMZkkZ2nTfUu3fv4Ebs lJoLY9jU5eDBg42UxxxzjJ3M8yx7I6NxWRchlKnnn3/edqNnz55GKbps2bKlurNGYr1YtVMSAwEI QCApAsYzyriMzqsG0ZmO1PKwYcMMzdPeaQMHDtQhfPb7QtsTjQq61wg6CR599NFevXo5l6WAti3V AKxz3IRmWp5zzjlGGl0+9thjdmQpRp1Xz1d02hncyKIYT/9nzJjhHpgt5dKpilo6aVjQ2RriYGyr dtpppy2xxBJGSs/TiY00XEIAAhCAQMgEDIU3LgMWpiWDRsZqLydPnuxZlmZRan2ebe2rr76SwEh1 NBNVWmsn0IRST6krlXLttdfaWaqK0cCm7bDWzk+ZMsW2o93gunXrVjpJUbJ9xx132GmkrPbRHHYR xEAAAhCIjYD9pHLHxOZG5AW5a2WHAxa/7bbb2nmrivHZVEV7x1RlqpT4+OOP93E+IiFUiSeffHI5 b6dNm+Ypk6X05557ro/D3IIABCAQP4FyT7NSfPz+RFViKPWMVAi1HlFL9Pz9NO7qzaL/NJnohFDr JT799FPDn4qX6hCXTpWKqpmxCwEIQKB6Av7PrurtBc2R7eUTQWtZTTr1orbbbjtnvWDFrBIVpXcf 4VsxS4gJNJCrQ+fLjfR6FjR//vxjjz3WfuPomZhICEAAArkngBB6NLGWTOh1oPsMJo9EC6M030TH /ya7LF2rILbYYovSDnDl/HTiJdg777zznXfe6cQQgAAEIFBwAgih9xfgrbfeWmONNS677DJnsqiR ThvN6DXbOuus47nQ0Egc9eV7772nya5nnXWWz7tPrbDUGVJdu3Z98MEHo/YH+xCAAAQyRKBezL5q CNinROeoB580Md/ScUvqb2lTb82x1OG9WnSh/Tz1UvDFF1/UGoyYnalYnGaKbrjhhn369Gnfvr2W YWgRhTa7KX20ZnHu3LkVLZAAAhCAQFIEkhIIhDCpFqdcCEAAAhBYhEBSQsjQ6CLNwAUEIAABCBSN AEJYtBanvhCAAAQgsAgBhHARHFxAAAIQgEDRCCCERWtx6gsBCEAAAosQQAgXwcEFBCAAAQgUjQBC WLQWp74QgAAEILAIAYRwERxcQAACEIBA0QgghEVrceoLAQhAAAKLEEAIF8HBBQQgAAEIFI0AQli0 Fqe+EIAABCCwCAGEcBEcXEAAAhCAQNEIIIRFa3HqCwEIQAACixBACBfBwQUEIAABCBSNAEJYtBan vhCAAAQgsAgBhHARHFxAAAIQgEDRCDRIVYX9D6NKlas4AwEIQAAC+SBAjzAf7UgtIAABCECgRgII YY3gyAYBCEAAAvkggBDmox2pBQQgAAEI1EgAIawRHNkgAAEIQCAfBBDCfLQjtYAABCAAgRoJIIQ1 giMbBCAAAQjkgwBCmI92pBYQgAAEIFAjAYSwRnBkgwAEIACBfBBACPPRjtQCAhCAAAQgAAEIQAAC EIAABCAAAQhAAAIQgAAEIAABCEAAAhCAAAQgAAEIQAACEIAABCAAAQhAAAIQgAAEIAABCEAAAhCA AAQgAAEIQAACEIAABCAAAQhAAAIQgAAEIAABCEAAAhCAAAQgAAEIQAACEIAABCAAAQhAAAIQgAAE IAABCEAAAhCAAAQgAAEIQAACEIAABCAAAQhAAAIQgAAEIAABCEAAAhCAAAQgAAEIQAACEIAABCAA AQhAAAIQgAAEIAABCEAAAhCAAAQgAAEIQAACEIAABCAAAQhAAAIQgAAEIAABCEAAAhCAAAQgAAEI QAACEIAABCAAAQhAAAIQgAAEIAABCEAAAhCAAAQgAAEIQAACEIAABCAAAQhAAAIQgAAEIAABCEAA AhCAAAQgAAEIQAACEIAABCAAAQhAAAIQgAAEIAABCEAAAhCAAAQgAAEIQAACEIAABCAAAQhAAAIQ gAAEIAABCEAAAhCAAAQgAAEIQAACEIAABCAAAQhAAAIQgAAEIAABCEAAAhCAAAQgAAEIQAACEIAA BCAAAQhAAAIQgAAEIAABCEAAAhCAAAQgAAEIQAACEIAABCAAAQhAAAIQgAAEIAABCEAAAhCAAAQg AAEIQAACEIAABCAAAQhAAAIQgAAEIAABCEAAAhCAAAQgAAEIQAACEIAABCAAAQhAAAIQgAAEIAAB CEAAAhCAAAQgAAEIQAACEIAABCAAAQhAAAIQgAAEIAABCEAAAhCAAAQgAAEIQAACEIAABCAAAQhA AAIQgAAEIAABCEAAAhCAAAQgAAEIQAACEIAABCAAAQhAAAIQgAAEIAABCEAAAhCAAAQgAAEIQAAC EIAABCAAAQhAAAIQgAAEIACBghCoF3M9FyxYEHOJFAeBlBOoVy/uP8OUA4nNvdNPPz22siio7gTO PPPMuhvxtBD3XyBC6NkMRBaZAEKYVOvzOEqKfG3lRveXslhtDpELAhCAAAQgkA8CCGE+2pFaQAAC EIBAjQQQwhrBkQ0CEIAABPJBACHMRztSCwhAAAIQqJEAQlgjOLJBAAIQgEA+CCCE+WhHagEBCEAA AjUSQAhrBEc2CEAAAhDIBwGEMB/tSC0gAAEIQKBGAg1qzBdNtujWS0bjL1YhEIgAC7cDYUpZouj2 MUlZRVPkTlJ7/aRrZxmEMEVfSVwJj4C/EPK1D490dZZol+p4RZ86qRZhaDT6tqUECEAAAhBIMQGE MMWNg2sQgAAEIBA9AYQwesaUAAEIQAACKSaAEKa4cXANAhCAAASiJ4AQRs+YEiAAAQhAIMUEEMIU Nw6uQQACEIBA9AQQwugZUwIEIAABCKSYAEKY4sbBNQhAAAIQiJ4AQhg9Y0qAAAQgAIEUE0AIU9w4 uAYBCEAAAtETQAijZ0wJEIAABCCQYgIIYYobB9cgAAEIQCB6Aghh9IwpAQIQgAAEUkwAIUxx4+Aa BCAAAQhETwAhjJ4xJUAAAhCAQIoJIIQpbhxcgwAEIACB6AkghNEzpgQIQAACEEgxAYQwxY2DaxCA AAQgED0BhDB6xpQAAQhAAAIpJoAQprhxcA0CEIAABKIngBBGz5gSIAABCEAgxQQQwhQ3Dq5BAAIQ gED0BBDC6BlTAgQgAAEIpJgAQpjixsE1CEAAAhCIngBCGD1jSoAABCAAgRQTQAhT3Di4BgEIQAAC 0RNACKNnTAkQgAAEIJBiAghhihsH1yAAAQhAIHoCCGH0jCkBAhCAAARSTAAhTHHj4BoEIAABCERP ACGMnjElQAACEIBAigkghCluHFyDAAQgAIHoCSCE0TOmBAhAAAIQSDEBhDDFjYNrEIAABCAQPQGE MHrGlAABCEAAAikmgBCmuHFwDQIQgAAEoieAEEbPmBIgAAEIQCDFBBqk2DdcgwAEIACBuAn06dPn wgsvDF7q7bfffs011wRPn8KUCGEKGwWXIACBrBJo3Lhxq1atbO9nzJgxdepUO74U06xZsyWWWMK+ qyzKaMdHGiP/11133eBFvPTSS8ETk/K/BBb4fmAEgVwS8P3WL8hllTNRqSjaZeDAgZ5mr7/+eh8m p512mmeuI4880idXRLe23357T2fKRf7zn/8My5NyRZTiwyrFtsM7QpsJMRCAAAQgUCACCGGBGpuq QgACEICATQAhtJkQAwEIQAACBSLAZJkCNTZVhQAEIFCRwGuvvbbJJpvYyfr27TtkyBA7PgcxCGEO GpEqQAACEAiNwI8//vjyyy/b5pZaaik7Mh8xDI3mox2pBQQgAAEI1EgAIawRHNkgAAEIQCAfBBDC fLQjtYAABCAAgRoJ8I6wRnBkgwAEIJASAg0aNFhjjTV69OjRuXPnFVZYYckll2y+8DN37txffvll ypQp48ePf/PNN19//fVx48alxOdUuYEQpqo5cAYCEIBAUAKtW7feaaedtBHMRhtt5LlDm23ojTfe uOiiix555JH58+fbdwsbgxAWtumpOAQgkGECe+2110033dSwYcOq6rDBBhs8+OCDr7zyyi677DJx 4sSq8uY4Me8Ic9y4VA0CEMgtgfbt21ergg4LnS/xzjvvyIITU/AAQljwLwDVhwAEikigY8eO9957 b/369YtYeavOCKGFhAgIQAACBSDQu3dvnZVRgIpWriLvCCszIgUEIACBOhIYNGjQeuutV85Iu3bt yt0KGK8Xfi+88MLIkSNHjRo1YcIETRbVQYbaC0bjnwMGDDjggAPatm1rm9IxT/fff78dX7QYhLBo LU59IQCBBAhohqc+oRc8e/bsu+666+6779amaPZE0OnTp3/99deaKXrZZZeNGDGiU6dOhgMbb7yx lPL777834ot2ydBo0Vqc+kIAAnkg8Ntvv2khxIorrrj//vu/+OKLtgq6Kzlp0qTjjz/eHeOE11pr LSdc2AA9wsI2PRWHAAQyTOCaa66pynstqPdMLyF84oknPG8VJ5IeYXHamppCAALFJfDDDz94Vt4e L/VMlu9IeoT5bl9qBwEI5J9AvXr1evXq1a1bt9VWW01brJX2V2vWrJnincovtph3tyfgljSOnVwG EMJcNmuqK6XtELUjVKQuagbds88+G2kRGIdAGgh079790EMP3WGHHWpeHY8Qqh0RwjR8mYvlw1/+ 8pebb7450jprBh1CGClhjFdL4IEHHjj99NPL5ZKYHX744eXuesa3aNFi6NChmilTx0Xx6j562i9U JEJYqOamshCAQDIEfv755zFjxpQre/LkyeVueca3adNGP/VCmfBZbsjUs9y8RnqPGue1ttQLAhCA QA4I6PiIUFRQKH7//fccAKljFfLcI+zXr99VV11VFaD99ttPy06ryuIk1pFg77//vnMZJHDrrbdq JVCQlKSBAAQgUCKwxx57aCF8EBpz5sz56aeftOheiTVxxnOC6Lx584KYyneaPAuhXgJrDlVV7bf4 4otXld6dWN+zaotbeuml3RYIQwACEKhI4IgjjiiXRqr2/PPPa6+Z1157TRI4bdo0J6Weh1OnTnUu nQBCKBR5FkKnpQlAAAIQyAcB/XpeZ511POui8+i33npr7TjqeVfHTXjGBx8aXbBggacF9yINzwTp j+QdYfrbCA8hAAEI/D+BNdZYo5zwnHLKKeVUUJmXW245T4jBhXDmzJmeFjRzxzM+Q5EIYYYaC1ch AIGiE/B5n+K/ZKicEAYfGtXupp706350hqfZOCMRwjhpUxYEIACBOhEot/5d46I+yzNUZLn5NXUX wnKDrnWqZ7yZEcJ4eVMaBCAAgToQ+PLLLz1za9Z6o0aNPG8pskOHDrvvvrvn3eBC+NVXX3la0Ght ly5dPG9lJRIhzEpL4ScEIACBP40ePdqTgl4cars1z1uKPOqoo8rJZPB3hFOmTNGRv3YRKvrYY4+1 4zMUgxBmqLFwFQIQKDqB7777rty7uvPOO8+TjrZh8xGqqnaWGTlypGcRhxxyiA4HXmmllaqy5mkq kUiWTySCvdCFPv3005tuumlVCPQXvt5661WVhcQQyCuBjz76aIMNNrBrpz+rYcOGqfOnY3hLdzUi qst//OMfdmInpmnTpk64YuD+++/fdtttPZPtuvAzY8aMb775xuhlPvXUUyeccIJnrpREIoQpaYgC ufH9wk9VFdbS4KrSkxgCOSZw5plnPvPMM54VHDx4sE6i+Oyzz8aPH6+R0iDTWNq2betpyjPy4Ycf 1qp87ffteVeR2pNk1VVXNe5++OGHRkzaLhkaTVuL4A8EIAABPwJaJnHLLbeUS6F3gZLALbbYwlBB bbfm3mjGyb7ssss64YoBWTjxxBMrJstcAoQwc02GwxCAQNEJ6J2f+nzBKWhqqDqLb775pp1F6wt9 enh2+uuuu057OJfbZcZOn4kYhDATzYSTEIAABP5H4Ndff+3Tp4/evf0vqnxIrwwHDhyoAyt0Tqed SnM+ZcqOLxcjCdRmp3of+fXXX5dLk7l4hDBzTYbDEIAABP70xRdfbLPNNgMGDCi3slCMNJKp3lvX rl0ff/xxXd54442eo6OaUFMtUGnq6quvfuqpp9533306dUdzZKq1kKr0TJZJVXPgDAQgkG0CDz30 ULm9QH0qdvbCj0+CcrekcM8995w0aZU/PksttZSO+dWMtNdff/2JJ55wbxD6ww8/lNuYppx9n3hp 6rnnnltKoCrrXWP79u0906d/shtC6NlwREIAAhDIBgEdN/jOwk+C7mq8VAsc9UnQh7oUzdBoXeiR FwIQgAAEMk8AIcx8E1IBCEAAAhCoCwGGRutCLzN5tcp1mWWW0euB5s2bl/5VQJ+GDRtq+tkvCz/a SLAUUMz8+fMzUzcchQAEIFA3Aghh3filMnerVq105EqPHj1WW201vUFffvnl9f48uKd6u643DnrT rs8bb7yhF+zB85ISAhCAQOYIIISZazJvh1u3bt27d+++Cz+SwLpsfau9B2VKn1JJn3/+uSbCXXnl lePGjfMum1gIQAACWSaAEGa59f70J3X1dt55Z500tv7669cwaTtI5Tt37qxNe4855ph777334osv fu+994LkIg0EIACBrBBgskxWWmoRP5s1aybx074SOh5MC2a1FX1EKuiUqreJe+yxx6hRo1RoudVC TmICEIAABDJEACHMUGP9z1UdMHbnnXdutdVWOpb6f7GxhFSo5LBfv36xlEYhEIAABCIngBBGjjh/ BbRr1+7555/X7kr5qxo1ggAECkgAISxgo4dQ5fr162tPKP8DP0MoBhMQgAAEoieAEEbPOL8l6OB4 TVPNb/2oGQQgUAgCCGEhmjmiSqpfOGzYsA4dOkRkH7MQgAAEYiCAEMYAOc9F6H3hzTffnOcaUjcI QCDvBBDCvLdw9PXbcsstu3XrFn05lAABCEAgEgIIYSRY02xUR2iOHz/+o48+0ioIBebNm1d3b488 8si6G8ECBCAAgUQIxL0KLZFKBi9Um6fMmjUreHp3yqiXtLvLChiW5unw6HcXfiR7Wn2vnbXnzJnj zi6327Rpoy25tSvpgQceuPnmm9dQEa21P/HEE2XcbZkwBCAAgUwQQAgXaaaqNqdeJGeaLiR899xz j7aA+fTTT3///Xd/13Si5o8LP+ojPvjgg126dDnssMMOOeSQJk2a+Gd039XpFgcccMDQoUPdkYQh AAEIZIIAQ6OZaKZATn788cdDhgxZeeWV11prrYsuumjMmDEVVdC2O3bsWG0ruvfee0sg7bs+Mdtv v73PXW5BAAIQSC0BeoSpbZqgjunswAceeODCCy8cOXJk0DyV0t13333qGp5zzjmVEv7vfq9evbSa ogbp/Z8JQhCAAASSIECPMAnqIZU5d+7cW265pWvXroMHDw5RBUvenXvuuVXZ1OioPAmpZpiBAAQg EB8BhDA+1iGWpFkwV1xxxUorraTdtzWYGaJlt6nXXnvNfVkxrCHZimlIAAEIQCBtBBgaTVuLBPLn pptuCpSuboneeuutqgxICO+4446qspAYAhCAQOIE6BEm3gTpdeDtt9+uyjl6hFXhIjEEIJASAghh ShoijW5oVUVVbmnCalXpSQwBCEAgDQQQwjS0Qk58aN269WKL8Y3KSWtSDQgUhwDvCAvR1prSueSS SzZv3rxZs2b6t/RR2F+3lKsqOlo+0apVq59++qmqXCSGAAQgkCwBhDBZ/pGU3rJly+7du6+28LPq qqvq/2WXXbaGjdNqcK5t27YIYQ3cyAIBCCRIACFMEH7IRbdv317buwwaNKhPnz7qnIVsPZi5ajuR waySCgIQgECEBBDCCOHGY7phw4ZaTbj77rtvuOGG/kOdMfjTqFGjGEqhCAhAAAIhEkAIF4GplXM1 j+xJhLbYYotFzEV/sd1222lztfRM10QIo29zSoAABEImgBAuAlRnCb388suLRAW+UM/MOOEocNZa Evbo0eOyyy7r169fLZkjy4MQRoYWwxCAQFQEEMKoyEZqt3///o888kgKX8jFMyUnUrYYhwAEikaA VV/Za3ENhz7++OMpVEGh5PSJ7H2f8BgChSeAEGbsK7Drrrvq0KXGjRun02+EMJ3tglcQgIAPAYTQ B07qbum4iVtvvbVBg/QOaCOEqfvS4BAEIFCJAEJYiVCa7mt2TGr7giVO8+bNSxMwfIEABCBQmQBC WJlRSlJstdVW2267bUqcKecGQliODPEQgEBqCaR3kC21yBJxTLMx1R0Mq+gpU6Z8/fXX33zzzaRJ k2bOnDlr1iz9O3v27AULFriLaNq06RlnnOGOqRhmaLQiIhJAAAJpI4AQpq1FvP3RUX91XDX/5Zdf Pvnkky+99NLw4cN//vln72IWjdVpEtUKIT3CRRFyBQEIZIAAQpiBRpKLW2+9dc2Ojhkz5uyzz77v vvvmz59flREdT1FVeiWmR1gtMdJDAAKJE0AIE2+CQA5ss802gdJZiR5++GFtQ6qRT+tO5YgWLVpU TrRoiv9r7/6Dr5j+OI4nNYpS+aj0S/gUUUkU/ZJCFKaQKT8iQqIxxkx+DSZRMyrVRCb5ERoqk+RH 0qcakl9JpZ+I/CyJSj8/RTG+r/mer9N+9+7du7v33s/n3rvP/vi09+zZs+c8due+79k9Z5dA+P8e fEIAgTwQIBDmwUGqXbt2mzZtIlS0pKREL6MI2xG0O4oQCLN0aTRsseX18g1Lx0IBCIS9L1AATY5t EwiEeXDoW7duHeG1EqWlpYMGDYocBeUSIRBmqUe4Z8+eUMcpwkXdUOWTOQ4CQ4cOjUMzaaMEmD6R B6dBnTp1ItRy2rRpGhoaYUO7SYThOWG7bnZf/gu7d+/2z+BaSyB0gfARAQR8BAiEPji5skqXRiNU 5Y033oiwlXMTveDC+THIco70CKtVqxaktuRBAAEEJEAgzIPTIFqP8IMPPkizba1atQpbQpYCYdge Yf369XP8ETxhYcmPAALZEyAQZs82YyVH6BFqjvzOnTvTqYFm07do0SJsCVm6NBr2HqFuqRYXF4et PPkRQCCeAgTCPDjuEd52u2XLljQbpse5KRaGLSRLgTBsj1DVbt68edjKkx8BBOIpQCDMg+O+devW sLUsKipK8x25mn0YdqfKn6VAqMfihK1M9+7dw25CfgQQiKcAgTAPjnuEQKjX9jZq1Chy23RXMlog OXDgQOSd+my4evVqn7Weqy655JIIc048iyIRAQQKW4BAmAfHN0IgVKuaNWsWuW0jRoyIcD1Wu8vS YBk9HDwsgmL5tddeG1mADRFAID4CTKjPg2MdNgaYJmmoy7x58yI0T0+xGTBgQIQN9fIK1/srIhSS bJM1a9Z06dIl2VrP9OHDh7/22msR7i96lkZi4Qnw7JjCO6b50SLzXZnsb2bb0LNnz2Q7SpbetWvX yHWoXLlysmKTpY8aNSrI7vRi+mQl+KRv3LixRo0aQcp35qlevfqKFSt8ivVf5Swqs8tPPPGE/649 12oOSS5Mrvesm03MLBSlIYBAWAEujYYVK4f8GioS4RkxDRo0GD16dKjqKpbPnDkzwvRBu5fsPeRz yZIldi/BFzp16rR06dLcf6Fx8BaREwEEMi7ApdGMk2alwPnz5998881hi77pppv0fBm9hjDIhuo+ Tp48uVu3bkEyJ8ujaex79+5NtjaddDVEkyOrVKkSthDdK33zzTfXr18vw8WLF2tiybZt2/QW4iDl rFy5Mkg28iCAAAIhBOzlIM+FEAUFyFowl0bV1j59+niKpUzUQ7cnTpyY8hqpXvOkS6kpS0uZIcLc /wBH8n9ZZsyYkbICGcyQzvPKXY3yr5UrMx8RQKCMBbg0WsbgEXc3d+7c7du3R9hYswn1Doovv/xy 8ODB7du3r1mzpi1Eq5o0aXLPPfcsW7Zs9uzZupRqV0Ve0EvtI2+bcsOpU6emzEMGBBBAIKwAl0bD ipVP/l27do0ZM0bDIKPtvl69ehMmTDDbbt68edOmTZpdcMwxx1SqlOEToG7duuvWrYtWyZRbzZkz Z8eOHc5YnnITMiCAAAIpBegRpiTKlQzjx4+PNo/C1QDFv9NPP71hw4YZj4LakQp37S6DH3Vjj1fE ZdCTohBAwAgQCPPmTNCDp0eOHJnj1VV8zWoN1a+NNnw0q7WicAQQyGsBAmE+Hb5x48bpZmGZ1XjB ggWzZs0KtbumTZuGyh82swawaPRslp5oGrYy5EcAgcIQIBDm03HUA8z69u27du3aMqj0okWLevXq pcn1ofaVzhzEgDtatWrVkCFDAmYmGwIIIJBSgECYkii3MmjUjB4nnf5blvxb9cknn2hChWYERgiE mpXvX3j6a3W7tH///vQL05ekBAQQkACBMP9OAz1lpl27dsuXL89S1dUX7NGjh3kXrh5RFuo52nrr Rdu2bbNUMWexU6ZM0Q+CsC/sdZbAMgIIIGAECIR5eSbooWsdOnTQTPnM1l5TFQcOHKhnW9u32ytF j3QJtZd+/fqFyh85c0lJiR4s/vTTT2fp3U+RK8aGCCCAgJ9AWT5io5CeLJPMtHfv3pos768acK36 WJ7PhdE0/IAlmGy6eFurVq1kFc5GeuPGjSdNmqQHsIWqZ8rMPFkmGweLMhFAoIL/t09mgeIQCCWm B8SopbqG6W+bbG1paen06dPPOeccH3x1CpNt7pmue3g+pWVpVdWqVc8999xhw4YtXLhw3759nhUL lUggzNKRolgEck3gkDKukL6JfPao73SftazyF9A0+fPPP79z584dO3ZM+fiV/fv369KiQqCCnGKh f8l5t1ZvFdbUfj3vTX1T/dU/vV4qQivGjh0bYavETTjtE01IQSB3BMo68PCNUAbHvmLFii1btiwu LlYAKCoq0l/FA72f9pd//+kRaxs2bCi8+FcGttF2wWkfzY2tECgbAQJh2Tizl1gLEAhjffhpfM4L MGo05w8RFUQAAQQQyKYAgTCbupSNAAIIIJDzAgTCnD9EVBABBBBAIJsCBMJs6lI2AggggEDOCxAI c/4QUUEEEEAAgWwKEAizqUvZCCCAAAI5L0AgzPlDRAURQAABBLIpQCDMpi5lI4AAAgjkvACBMOcP ERVEAAEEEMimAIEwm7qUjQACCCCQ8wIEwpw/RFQQAQQQQCCbAgTCbOpSNgIIIIBAzgtUyvkaplXB du3aXXzxxSriwQcfTKugzG2sNyXp5X96193QoUODlHr55Ze3bt3amVNv4p06daozJc1l4ei9RfPm zdNLDdMsKtc218uYBg8erFo9++yzP/74Y65Vj/oggEAcBfQYfp9/GRe5/fbbze4yXnLkAkeMGKEq HThwIGAJL7zwgkvs9ddfD7htwGx79uzRLu69996A+fMo22mnnWb0OnXqVI7Vdh1B18dyrBi7RgAB CRR4j7AAjvFzzz23aNEi05AhQ4acfPLJBdAomoAAAgjkjgCBMHeOhXdNdLnSXrG8+uqrCYTeTKQi gAACUQUYLBNVju0QQAABBApCII6BsFatWkGO3SGHHHL00UcrsxaC5Ld5jjzyyDp16lSsWP62kZtQ s2ZN25yUC0cddVRYIlPmYYcdJuGU5YfNUK1atUqVwl3qqFKlyhFHHBF2R+RHAIHCECj/L+syc+zQ ocMrr7yyefPm33///Zdffpk0aVLVqlVdez/00EN79uw5efLkb7755o8//tiyZYsyl5aWzpkz54IL LnBldn3s06ePsv300087d+789ddfd+zYobGdHTt2dGVL9lHjG2fPnv3hhx++/PLL6Xwpp9OE+vXr v/TSSxs2bNi+ffumTZtmzJhx7LHHJqvwpZdeOn/+/N9++23btm27du36+OOP77vvPu3dM7/S1TT9 O+WUU5RB13hXrVq1b98+CWuozqxZs5o0aeK5YfDEypUrP/roo6tXr5a/6q9BsN26dfPfXK17/vnn 16xZs3v3bjVh3bp1GpqkA+G/FWsRQACBtARc4+VcH9Mq2mtjO2pUMxD0/ejanR2EYjc97rjjnHn+ /PPPv//+26aMHj3a5nQuqP/36quv2mx//fWXcytXp8dz1GjDhg31LawS1q9f37hxY2fhzuUFCxYo j/+o0QhNMKNGx44dq4kZKl9TO9QE0xxF9Pbt2zvroGX1t8aNG2cy6K9GwNrld999Vxqu/GYTk6dH jx6aEGLz24U77rgjcavgKUJ+//33bWmmSgq0d955p0lMHDV61VVX6ceKWavjZZusn0qa3xJ810Fy 2op5LgQpgTwIIFA4Ap5fBDYx4+20gVDfbm+99ZbCoXqBLVq00Pe12WnXrl2dO1UUUfBTn6x79+5a 1uVN9TNatmw5c+ZMk1/dPmd+s2xLe/HFF8844wxdZ9NetPDQQw8pxqQMhMcff/z333+v8r/44ot6 9eollm9TAgbCsE0wgVDxTxveeOONuhpcvXr1K664Qp0k1Up9XCHYOmhBeYyGel2nnnqqenuyGjVq lElUn9KZ2Swrdpq1+h2gYr/++utbbrlFszxbtWp15ZVXKoalGQjViTflP/zww+rX6qJrly5dvvvu OzXKpLsCofr3Jn358uWdO3fW8dJRU/xbu3at0tUbPvzwwxNbETnF7CvZ38jFsiECCOSlQLLvApOe 8SbZQKgLd86bdrqtpQue2qkukDp3qi/EunXrOlPMsiKBopTy66vftbZv376m8p7z8DTI0/WV6uoR nnjiiboUqRI+//zz2rVruwp3fQwSCCM0wQRC1eH666937vGiiy4yTbvuuutsukKaAozSly5dqmn4 Nl0L48ePV7p6VyeddJIzXcs2ECoyzZ07V7fxXBkC3rh1bWU+NmjQYP/+/dr1448/7sygK58K7aYJ zkCoypijuXLlSlcTdGLosqo2uf/++51Fpbls6pDsb5qFszkCCOSZQLLvApOe8cbYQKjLca7C9XWs nequnis92UddOVR+9RVcGUwfQrHB1W1yZbMfnYFQfVN1VVXs4sWLg4xPCRII7Y4SF5I1wQTCrVu3 uqKChsB8++23qp7u7dnS9KQepeifK2oqg7q2pgf22GOP2fxmwQZCXbRM/3agq/AHHnjAVCkxAOs2 p1nlDIS6Q2kS1Rd0FaWPY8aM0Vrda0xcFTnF7C7Z38jFsiECCGREINzguozsslwKUX/LtV8T0tSZ cKWbj7rcpytsjRo1suM/TZfF1XFR5DBfvrooGvxhMWYXuk6rwSZFRUVLlizRsA6N1/CsSeTEgE2w 5b/33nvqV9mPWtAXt2qoa5hNmza16TaMvYKHveYAAA1RSURBVP322zbRLOgCr3pazZs3t3lcGfSx pKRE90ET09NJUa9am+sJarrP6ipHP3d0jdeVqOuxStEV2o8++si1Sh81ikd/TzjhBP0OkEBiBlIQ QKDABOISCDdu3Og6chpJoRTXdUulaNCgRlgMGjRIsyBcm+ijbj45E/WNr3ijFPWcnOkpl7WV7iya XqBusGmYaAYDYagm2KpqJK1dtgsmUddsdQtNw2iVbsbyKOqrB2mz2QX9vFAgVItsimsh41FQ5Zuh repbu/alj56NMr9d1HnVrV/lsXM/zIIZ7KMTQ/drEy8AJO6CFAQQyHeBuATCgN01fQl+9tlnGsOp 46ohlPqn6QEaT6iPemqlLq/ZL01z4NVvMAuJgdakJ/urchQFNX5Hz+DWTqdMmXLhhRdmpP8Rtgm2 hp6BzSSqtgquP/zwgzKbPrSmTHjWVtMhlEedaVusa0FDb1wp6X80I4x86u/ahTlq8u/Vq5drlfOj 7hcSCJ0gLCNQqAJxCYQBj5/eUaAoqM6Z7inqhpxzK72iwXmfyazS7AKzoCuczsxBlp966im9GGHg wIETJ07UpdG777575MiRQTb0zxO2CbY0zx6wTVTkMznNgk23m5uFGjVqaMFmdq3VR41eSUxMM0Uh UFdHPavkmagfN9qjxk/pFrLPrrPRefXZHasQQKC8BAiEB+V1uVL9M30eNmyYKwoq0Xb+Dm5QoYKm AZiPPpP/nPntsoZW3nrrrfqocKipGuqaPPLIIwsXLvz0009tnsQFz06YM1uEJtjNPSeSm0TNt7NX bs3LjHTlUDFGt9ns5mbBdM7K+IVH2p2eluA53NezUV999dV5552n3y6aO+GqPx8RQCCGAjF6skzK o6sbfpp7oGwaVe/KrKkXdl658zaheYiMMvfu3du1if9HZ0jTtDxdgtOg02nTppkeVbJtzW0w18RE Z+YITbCbt23b1i7bhTZt2mjZXBQ1iTbIaRagzWYWVHnzTHCbx5Uh2kddmNWgU59tze40ZjWxX37m mWcmbmjG1OiXjWfsTMxPCgIIFLYAgfDg8bXXORM7fxpwb4fma7L5wW0qVJgwYYI+qkeiZ6Y4082y hpX6f4krmy4k9u/fX6FRX+XqICYWYlM0SUPLmnSR7Bls0ZpgytfVxbPPPtvuSwtqstqlhenTp9t0 Dfs0HUGNJ7KJZkHTDc0vCTMIxbU22kfNZVS3W7dgNXg1WQn6AaFV+iVxzTXXOPNogI8rxazVo+/0 5Dzl10MAnPmdy9rW+ZFlBBBAIGMC+rr3+Zex3fxbkJ1H+G/Cwf+ffPJJ1UTPFD2Y9N9LnUrUgI7i 4mKbrmdxaaadxkyammvUjF2lBX1jmsl2mqE/YMAA52ias846SxMEXR045zxCZzn2ySzqIDrTncva tZmop0diJpt3qLARtgl2Qr0abmdKqLekh3CqKPV6Xf3U4cOHG4qhQ4fa6ul3gHlGge692US7YOcR mvfF2/SUCytWrDD70uVZE2U9N3nnnXeUTQ2xjwpSZk0SNdvqr+v+7m233WZW6XWPztbp2rJCrx76 6v+LxLMOPom2Gp4LPhuyCgEEClDA84vAJma8wWEDoW7Xmcoo7OktgPpCNI990TesXdWvXz9XPXXV VFfnzIYKG5p+ru9lEx2VGDAQqu+4bNky5Vc48XnpoMbCmB3pr+7b6Z+9T2lqZesZvAkmEOrRaCpN Q2R150zBzDyTRR9vuOEGV3s1nNJUVXXQQBXNNTTPmtFHjRr1vBoZLRDqV8XPP/9s2qtxvz5P3tFj 8MyjCfRDQXMZdbfVNEqP8zabuwKhAt4zzzxjVmn2pJ6KoKipwG9/7mitq9XpfDQ7SvY3nZLZFgEE 8k8g2XeBSc94e8IGQlXgsssuM8HPVlUR0bwzQU8bUaIea5lYT10v1dPaTJfIbqhrnhoI6nriTLIe ocrUpUhTgm5SJrs0p9hw1113aeq66RpqXwoVrvqEbYKJGXpkjJ60ojrb+utCq+f1Xu1OYVvPM7MP MNMmqo9GGCV7QEG0QKgdaTCtBhapfE92Z8M1eVGPJrCVV6P0ZHBdQzabuwKh2VBTVsyzzu1WWlDX U9da1Zt3Fp7msrP8xOU0C2dzBBBIUyDcm/bS3Jk217eATyHO64o+2bK9SsNhmjVrpntm+qJXXyH4 ZHmNqdH9Rd3DUxjTABN1rVzPaslgzfW4TjM3QBEocS555CboiqLuFOpqoa5Juq4bJ1ZeMV5Q+qef DvqVoCiemCf9FEU4tdQ88CVlaRovo1E8ugWoR6EGnDyqwvUQAB24vXv3asqEOpSKnSl3FCpDXpz2 oVpEZgQKSYBAWEhHk7bkqACBMEcPDNVC4L8CjBrlREAAAQQQiLUAgTDWh5/GI4AAAggQCDkHEEAA AQRiLUAgjPXhp/EIIIAAAgRCzgEEEEAAgVgLEAhjffhpPAIIIIAAgZBzAAEEEEAg1gIEwlgffhqP AAIIIEAg5BxAAAEEEIi1AIEw1oefxiOAAAIIEAg5BxBAAAEEYi1AIIz14afxCCCAAAIEQs4BBBBA AIFYCxAIY334aTwCCCCAAIGQcwABBBBAINYCBMJYH34ajwACCCBAIOQcQAABBBCItQCBMNaHn8Yj gAACCBAIOQcQQAABBGItQCCM9eGn8QgggAACBELOAQQQQACBWAsQCGN9+Gk8AggggACBkHMAAQQQ QCDWAgTCWB9+Go8AAgggQCDkHEAAAQQQiLUAgTDWh5/GI4AAAggQCDkHEEAAAQRiLUAgjPXhp/EI IIAAAgRCzgEEEEAAgVgLEAhjffhpPAIIIIAAgZBzAAEEEEAg1gIEwlgffhqPAAIIIEAg5BxAAAEE EIi1AIEw1oefxiOAAAIIEAg5BxBAAAEEYi1AIIz14afxCCCAAAIEQs4BBBBAAIFYCxAIY334aTwC CCCAAIGQcwABBBBAINYCBMJYH34ajwACCCBAIOQcQAABBBCItQCBMNaHn8YjgAACCBAIOQcQQAAB BGItQCCM9eGn8QgggAACBELOAQQQQACBWAsQCGN9+Gk8AggggACBkHMAAQQQQCDWAgTCWB9+Go8A AgggQCDkHEAAAQQQiLUAgTDWh5/GI4AAAggQCDkHEEAAAQRiLUAgjPXhp/EIIIAAAgRCzgEEEEAA gVgLEAhjffhpPAIIIIAAgZBzAAEEEEAg1gKVcqr1//zzT07Vh8oggAACCBS8AD3Cgj/ENBABBBBA wE+AQOinwzoEEEAAgYIXIBAW/CGmgQgggAACfgIEQj8d1iGAAAIIFLwAgbDgDzENRAABBBDwEyAQ +umwDgEEEECg4AUIhAV/iGkgAggggICfAIHQT4d1CCCAAAIFL0AgLPhDTAMRQAABBBBAAAEEEEAA AQQQQAABBBBAAAEEEEAAAQQQQAABBBBAAAEEEEAAAQQQQAABBBBAAAEEEEAAAQQQQAABBBBAAAEE EEAAAQQQQAABBBBAAAEEEEAAAQQQQAABBBBAAAEEEEAAAQQQQAABBBBAAAEEEEAAAQQQQAABBBBA AAEEEEAAAQQQQAABBBBAAAEEEEAAAQQQQAABBBBAAAEEEEAAAQQQQAABBBBAAAEEEEAAAQQQQAAB BBBAAAEEEEAAAQQQQAABBBBAAAEEEEAAAQQQQAABBBBAAAEEEEAAAQQQQAABBBBAAAEEEEAAAQQQ QAABBBBAAAEEEEAAAQQQQAABBBBAAAEEEEAAAQQQQAABBBBAAAEEEEAAAQQQQAABBBBAAAEEEEAA AQQQQAABBBBAAAEEEEAAAQQQQAABBBBAAAEEEEAAAQQQQAABBBBAAAEEEEAAAQQQQAABBBBAAAEE EEAAAQQQQAABBBBAAAEEEEAAAQQQQAABBBBAAAEEEEAAAQQQQAABBBBAAAEEEEAAAQQQQAABBBBA AAEEEEAAAQQQQAABBBBAAAEEEEAAAQQQQAABBBBAAAEEEEAAAQQQQAABBBBAAAEEEEAAAQQQQAAB BBBAAAEEEEAAAQQQQAABBBBAAAEEEEAAAQQQQAABBBBAAAEEEEAAAQQQQAABBBBAAAEEEEAAAQQQ QAABBBBAAAEEEEAAAQQQQAABBBBAAAEEEEAAAQQQQAABBBBAAAEEEEAAAQQQQAABBBBAAAEEEEAA AQQQQAABBBBAAAEEEEAAAQQQQAABBBBAAAEEEEAAAQQQQAABBBBAAAEEEEAAAQQQQAABBBBAAAEE EEAAAQQQQAABBBBAAAEEEEAAAQQQQAABBBBAAAEEEEAAAQQQQAABBBBAAAEEEEAAAQQQQAABBBBA AAEEEEAAAQQQQAABBBBAAAEEEEAAAQQQQAABBBBAAAEEEEAAAQQQQAABBBBAAAEEEEAAAQQQQAAB BBBAAAEEEEAAAQQQQAABBBBAAAEEEEAAAQQQQAABBBBAAAEEEEAAAQQQQAABBBBAAAEEEEAAAQQQ QAABBBBAAAEEEEAAAQQQQAABBBBAAAEEEEAAAQQQQAABBBBAAAEEEEAAAQQQQAABBBBAAAEEEEAA AQQQQAABBBBAAAEEEEAAAQQQCCjwH8GRqIPPIEGhAAAAAElFTkSuQmCC "
       preserveAspectRatio="none"
       height="1250"
       width="750"
       style="opacity:0.66000001" />
  </g>
  <g
     inkscape:groupmode="layer"
     id="layer2"
     inkscape:label="Large Logo"
     style="display:inline"
     transform="translate(-42.992913,-49.880665)"
     sodipodi:insensitive="true">
    <rect
       style="fill:none;fill-opacity:1;fill-rule:evenodd;stroke:#000000;stroke-width:12;stroke-linecap:butt;stroke-linejoin:miter;stroke-miterlimit:4;stroke-dasharray:none;stroke-opacity:1;image-rendering:auto"
       id="rect3336"
       width="654.06702"
       height="654.06702"
       x="48.9594"
       y="55.847153" />
    <text
       xml:space="preserve"
       style="font-style:normal;font-variant:normal;font-weight:bold;font-stretch:normal;font-size:60px;line-height:125%;font-family:Hack;-inkscape-font-specification:'Hack, Bold';text-align:start;letter-spacing:0px;word-spacing:0px;writing-mode:lr-tb;text-anchor:start;fill:#000000;fill-opacity:1;stroke:none;stroke-width:1px;stroke-linecap:butt;stroke-linejoin:miter;stroke-opacity:1"
       x="603.44922"
       y="126.17995"
       id="text3436"
       sodipodi:linespacing="125%"><tspan
         sodipodi:role="line"
         x="603.44922"
         y="126.17995"
         id="tspan3438"><tspan
           x="603.44922"
           y="126.17995"
           id="tspan3440">SN</tspan><tspan
           dx="0"
           x="675.63672"
           y="126.17995"
           id="tspan3442" /></tspan></text>
    <text
       sodipodi:linespacing="125%"
       id="text4188"
       y="442.80075"
       x="103.43674"
       style="font-style:normal;font-variant:normal;font-weight:bold;font-stretch:normal;font-size:312.5px;line-height:125%;font-family:Hack;-inkscape-font-specification:'Hack, Bold';text-align:start;letter-spacing:0px;word-spacing:0px;writing-mode:lr-tb;text-anchor:start;fill:#000000;fill-opacity:1;stroke:none;stroke-width:1px;stroke-linecap:butt;stroke-linejoin:miter;stroke-opacity:1"
       xml:space="preserve"><tspan
         style="font-style:normal;font-variant:normal;font-weight:bold;font-stretch:normal;font-size:312.5px;line-height:125%;font-family:Hack;-inkscape-font-specification:'Hack, Bold';text-align:start;writing-mode:lr-tb;text-anchor:start"
         y="442.80075"
         x="103.43674"
         id="tspan4190"
         sodipodi:role="line">Hal</tspan></text>
    <text
       xml:space="preserve"
       style="font-style:normal;font-variant:normal;font-weight:bold;font-stretch:normal;font-size:75px;line-height:125%;font-family:Hack;-inkscape-font-specification:'Hack, Bold';text-align:start;letter-spacing:0px;word-spacing:0px;writing-mode:lr-tb;text-anchor:start;fill:#000000;fill-opacity:1;stroke:none;stroke-width:1px;stroke-linecap:butt;stroke-linejoin:miter;stroke-opacity:1"
       x="117.63417"
       y="540.57111"
       id="text4376"
       sodipodi:linespacing="125%"><tspan
         sodipodi:role="line"
         id="tspan4384"
         x="117.63417"
         y="540.57111"
         style="letter-spacing:-0.60000002px">hacklabor.de</tspan></text>
    <text
       xml:space="preserve"
       style="font-style:normal;font-variant:normal;font-weight:bold;font-stretch:normal;font-size:60px;line-height:125%;font-family:Hack;-inkscape-font-specification:'Hack, Bold';text-align:start;letter-spacing:0px;word-spacing:0px;writing-mode:lr-tb;text-anchor:start;fill:#000000;fill-opacity:1;stroke:none;stroke-width:1px;stroke-linecap:butt;stroke-linejoin:miter;stroke-opacity:1"
       x="74.587891"
       y="682.01392"
       id="text3444"
       sodipodi:linespacing="125%"><tspan
         sodipodi:role="line"
         x="74.587891"
         y="682.01392"
         id="tspan3446"><tspan
           x="74.587891"
           y="682.01392"
           id="tspan3448">2016</tspan></tspan></text>
    <text
       xml:space="preserve"
       style="font-style:normal;font-variant:normal;font-weight:bold;font-stretch:normal;font-size:60px;line-height:125%;font-family:Hack;-inkscape-font-specification:'Hack, Bold';text-align:start;letter-spacing:0px;word-spacing:0px;writing-mode:lr-tb;text-anchor:start;fill:#000000;fill-opacity:1;stroke:none;stroke-width:1px;stroke-linecap:butt;stroke-linejoin:miter;stroke-opacity:1"
       x="549.12372"
       y="650.11987"
       id="text3450"
       sodipodi:linespacing="125%"><tspan
         sodipodi:role="line"
         x="549.12372"
         y="650.11987"
         id="tspan3452"><tspan
           x="549.12372"
           y="650.11987"
           style="font-style:normal;font-variant:normal;font-weight:bold;font-stretch:normal;font-size:30px;line-height:125%;font-family:Hack;-inkscape-font-specification:'Hack, Bold';text-align:start;writing-mode:lr-tb;text-anchor:start"
           id="tspan3454">53.6011</tspan><tspan
           dx="0"
           x="675.45184"
           y="650.11987"
           style="font-style:normal;font-variant:normal;font-weight:bold;font-stretch:normal;font-size:30px;line-height:125%;font-family:Hack;-inkscape-font-specification:'Hack, Bold';text-align:start;writing-mode:lr-tb;text-anchor:start"
           id="tspan3456" /></tspan><tspan
         sodipodi:role="line"
         x="549.12372"
         y="687.61987"
         id="tspan3458"><tspan
           x="549.12372"
           y="687.61987"
           style="font-style:normal;font-variant:normal;font-weight:bold;font-stretch:normal;font-size:30px;line-height:125%;font-family:Hack;-inkscape-font-specification:'Hack, Bold';text-align:start;writing-mode:lr-tb;text-anchor:start"
           id="tspan3460">11.4183</tspan></tspan></text>
    <text
       xml:space="preserve"
       style="font-style:normal;font-variant:normal;font-weight:bold;font-stretch:normal;font-size:60px;line-height:125%;font-family:Hack;-inkscape-font-specification:'Hack, Bold';text-align:start;letter-spacing:0px;word-spacing:0px;writing-mode:lr-tb;text-anchor:start;fill:#000000;fill-opacity:1;stroke:none;stroke-width:1px;stroke-linecap:butt;stroke-linejoin:miter;stroke-opacity:1"
       x="77.754715"
       y="126.69521"
       id="text3432"
       sodipodi:linespacing="125%"><tspan
         sodipodi:role="line"
         id="tspan3434"
         x="77.754715"
         y="126.69521">42</tspan></text>
  </g>
  <g
     style="display:inline"
     inkscape:label="Medium Logo"
     id="g4491"
     inkscape:groupmode="layer"
     transform="translate(-42.992913,-49.880665)">
    <rect
       y="820.80322"
       x="59.085266"
       height="301.97089"
       width="301.97089"
       id="rect4493"
       style="fill:none;fill-opacity:1;fill-rule:evenodd;stroke:#000000;stroke-width:12;stroke-linecap:butt;stroke-linejoin:miter;stroke-miterlimit:4;stroke-dasharray:none;stroke-opacity:1;image-rendering:auto" />
    <text
       xml:space="preserve"
       style="font-style:normal;font-variant:normal;font-weight:bold;font-stretch:normal;font-size:144.27558899px;line-height:125%;font-family:Hack;-inkscape-font-specification:'Hack, Bold';text-align:start;letter-spacing:0px;word-spacing:0px;writing-mode:lr-tb;text-anchor:start;fill:#000000;fill-opacity:1;stroke:none;stroke-width:1px;stroke-linecap:butt;stroke-linejoin:miter;stroke-opacity:1"
       x="84.236465"
       y="999.4527"
       id="text4515"
       sodipodi:linespacing="125%"><tspan
         sodipodi:role="line"
         id="tspan4517"
         x="84.236465"
         y="999.4527"
         style="font-style:normal;font-variant:normal;font-weight:bold;font-stretch:normal;font-size:144.27558899px;line-height:125%;font-family:Hack;-inkscape-font-specification:'Hack, Bold';text-align:start;writing-mode:lr-tb;text-anchor:start">Hal</tspan></text>
    <text
       sodipodi:linespacing="125%"
       id="text4519"
       y="1044.5914"
       x="90.791161"
       style="font-style:normal;font-variant:normal;font-weight:bold;font-stretch:normal;font-size:34.62614059px;line-height:125%;font-family:Hack;-inkscape-font-specification:'Hack, Bold';text-align:start;letter-spacing:0px;word-spacing:0px;writing-mode:lr-tb;text-anchor:start;fill:#000000;fill-opacity:1;stroke:none;stroke-width:1px;stroke-linecap:butt;stroke-linejoin:miter;stroke-opacity:1"
       xml:space="preserve"><tspan
         style="letter-spacing:-0.27700913px"
         y="1044.5914"
         x="90.791161"
         id="tspan4521"
         sodipodi:role="line">hacklabor.de</tspan></text>
  </g>
  <g
     inkscape:groupmode="layer"
     id="g4613"
     inkscape:label="Small Logo"
     style="display:inline"
     transform="translate(-42.992913,-49.880665)">
    <rect
       style="fill:none;fill-opacity:1;fill-rule:evenodd;stroke:#000000;stroke-width:12;stroke-linecap:butt;stroke-linejoin:miter;stroke-miterlimit:4;stroke-dasharray:none;stroke-opacity:1;image-rendering:auto"
       id="rect4615"
       width="168.09406"
       height="168.09406"
       x="540.58038"
       y="806.56" />
    <text
       sodipodi:linespacing="125%"
       id="text4617"
       y="914.80627"
       x="565.7395"
       style="font-style:normal;font-variant:normal;font-weight:bold;font-stretch:normal;font-size:68.84605408px;line-height:125%;font-family:Hack;-inkscape-font-specification:'Hack, Bold';text-align:start;letter-spacing:0px;word-spacing:0px;writing-mode:lr-tb;text-anchor:start;fill:#000000;fill-opacity:1;stroke:none;stroke-width:1px;stroke-linecap:butt;stroke-linejoin:miter;stroke-opacity:1"
       xml:space="preserve"><tspan
         style="font-style:normal;font-variant:normal;font-weight:bold;font-stretch:normal;font-size:68.84605408px;line-height:125%;font-family:Hack;-inkscape-font-specification:'Hack, Bold';text-align:start;writing-mode:lr-tb;text-anchor:start"
         y="914.80627"
         x="565.7395"
         id="tspan4619"
         sodipodi:role="line">Hal</tspan></text>
  </g>
</svg>
